time(sec)	tx/rx	C/S	IMSI	IP[src]	IP[dst]	PktSize(bytes)
time(sec)	tx/rx	C/S	IMSI	IP[src]	IP[dst]	PktSize(bytes)
3	tx	C		81	:::49153	6001:db80::200:ff:fe00:7:50002	250	
3.06	tx	C		82	:::49153	6001:db80::200:ff:fe00:7:50003	250	
3.5	tx	C		81	:::49153	6001:db80::200:ff:fe00:7:50002	250	
3.56	tx	C		82	:::49153	6001:db80::200:ff:fe00:7:50003	250	
4	tx	C		81	:::49153	6001:db80::200:ff:fe00:7:50002	250	
4.06	tx	C		82	:::49153	6001:db80::200:ff:fe00:7:50003	250	
4.5	tx	C		81	:::49153	6001:db80::200:ff:fe00:7:50002	250	
4.56	tx	C		82	:::49153	6001:db80::200:ff:fe00:7:50003	250	
5	tx	C		81	:::49153	6001:db80::200:ff:fe00:7:50002	250	
5.06	tx	C		82	:::49153	6001:db80::200:ff:fe00:7:50003	250	
5.5	tx	C		81	:::49153	6001:db80::200:ff:fe00:7:50002	250	
5.56	tx	C		82	:::49153	6001:db80::200:ff:fe00:7:50003	250	
6	tx	C		81	:::49153	6001:db80::200:ff:fe00:7:50002	250	
6.06	tx	C		82	:::49153	6001:db80::200:ff:fe00:7:50003	250	
6.5	tx	C		81	:::49153	6001:db80::200:ff:fe00:7:50002	250	
6.56	tx	C		82	:::49153	6001:db80::200:ff:fe00:7:50003	250	
7	tx	C		81	:::49153	6001:db80::200:ff:fe00:7:50002	250	
7.06	tx	C		82	:::49153	6001:db80::200:ff:fe00:7:50003	250	
7.5	tx	C		81	:::49153	6001:db80::200:ff:fe00:7:50002	250	
7.56	tx	C		82	:::49153	6001:db80::200:ff:fe00:7:50003	250	
8	tx	C		81	:::49153	6001:db80::200:ff:fe00:7:50002	250	
8.06	tx	C		82	:::49153	6001:db80::200:ff:fe00:7:50003	250	
8.5	tx	C		81	:::49153	6001:db80::200:ff:fe00:7:50002	250	
8.56	tx	C		82	:::49153	6001:db80::200:ff:fe00:7:50003	250	
9	tx	C		81	:::49153	6001:db80::200:ff:fe00:7:50002	250	
9.06	tx	C		82	:::49153	6001:db80::200:ff:fe00:7:50003	250	
9.5	tx	C		81	:::49153	6001:db80::200:ff:fe00:7:50002	250	
9.56	tx	C		82	:::49153	6001:db80::200:ff:fe00:7:50003	250	
10	tx	C		81	:::49153	6001:db80::200:ff:fe00:7:50002	250	
10.06	tx	C		82	:::49153	6001:db80::200:ff:fe00:7:50003	250	
10.5	tx	C		81	:::49153	6001:db80::200:ff:fe00:7:50002	250	
10.56	tx	C		82	:::49153	6001:db80::200:ff:fe00:7:50003	250	
11	tx	C		81	:::49153	6001:db80::200:ff:fe00:7:50002	250	
11.06	tx	C		82	:::49153	6001:db80::200:ff:fe00:7:50003	250	
11.5	tx	C		81	:::49153	6001:db80::200:ff:fe00:7:50002	250	
11.56	tx	C		82	:::49153	6001:db80::200:ff:fe00:7:50003	250	
12	tx	C		81	:::49153	6001:db80::200:ff:fe00:7:50002	250	
12.06	tx	C		82	:::49153	6001:db80::200:ff:fe00:7:50003	250	
12.5	tx	C		81	:::49153	6001:db80::200:ff:fe00:7:50002	250	
12.56	tx	C		82	:::49153	6001:db80::200:ff:fe00:7:50003	250	
13	tx	C		81	:::49153	6001:db80::200:ff:fe00:7:50002	250	
13.06	tx	C		82	:::49153	6001:db80::200:ff:fe00:7:50003	250	
13.5	tx	C		81	:::49153	6001:db80::200:ff:fe00:7:50002	250	
13.56	tx	C		82	:::49153	6001:db80::200:ff:fe00:7:50003	250	
14	tx	C		81	:::49153	6001:db80::200:ff:fe00:7:50002	250	
14.06	tx	C		82	:::49153	6001:db80::200:ff:fe00:7:50003	250	
14.5	tx	C		81	:::49153	6001:db80::200:ff:fe00:7:50002	250	
14.56	tx	C		82	:::49153	6001:db80::200:ff:fe00:7:50003	250	
15	tx	C		81	:::49153	6001:db80::200:ff:fe00:7:50002	250	
15.06	tx	C		82	:::49153	6001:db80::200:ff:fe00:7:50003	250	
15.5	tx	C		81	:::49153	6001:db80::200:ff:fe00:7:50002	250	
15.56	tx	C		82	:::49153	6001:db80::200:ff:fe00:7:50003	250	
16	tx	C		81	:::49153	6001:db80::200:ff:fe00:7:50002	250	
16.06	tx	C		82	:::49153	6001:db80::200:ff:fe00:7:50003	250	
16.5	tx	C		81	:::49153	6001:db80::200:ff:fe00:7:50002	250	
16.56	tx	C		82	:::49153	6001:db80::200:ff:fe00:7:50003	250	
17	tx	C		81	:::49153	6001:db80::200:ff:fe00:7:50002	250	
17.06	tx	C		82	:::49153	6001:db80::200:ff:fe00:7:50003	250	
17.5	tx	C		81	:::49153	6001:db80::200:ff:fe00:7:50002	250	
17.56	tx	C		82	:::49153	6001:db80::200:ff:fe00:7:50003	250	
18	tx	C		81	:::49153	6001:db80::200:ff:fe00:7:50002	250	
18.06	tx	C		82	:::49153	6001:db80::200:ff:fe00:7:50003	250	
18.5	tx	C		81	:::49153	6001:db80::200:ff:fe00:7:50002	250	
18.56	tx	C		82	:::49153	6001:db80::200:ff:fe00:7:50003	250	
19	tx	C		81	:::49153	6001:db80::200:ff:fe00:7:50002	250	
19.06	tx	C		82	:::49153	6001:db80::200:ff:fe00:7:50003	250	
19.5	tx	C		81	:::49153	6001:db80::200:ff:fe00:7:50002	250	
19.56	tx	C		82	:::49153	6001:db80::200:ff:fe00:7:50003	250	
20	tx	C		81	:::49153	6001:db80::200:ff:fe00:7:50002	250	
20.06	tx	C		82	:::49153	6001:db80::200:ff:fe00:7:50003	250	
20.5	tx	C		81	:::49153	6001:db80::200:ff:fe00:7:50002	250	
20.56	tx	C		82	:::49153	6001:db80::200:ff:fe00:7:50003	250	
21	tx	C		81	:::49153	6001:db80::200:ff:fe00:7:50002	250	
21.06	tx	C		82	:::49153	6001:db80::200:ff:fe00:7:50003	250	
21.5	tx	C		81	:::49153	6001:db80::200:ff:fe00:7:50002	250	
21.56	tx	C		82	:::49153	6001:db80::200:ff:fe00:7:50003	250	
22	tx	C		81	:::49153	6001:db80::200:ff:fe00:7:50002	250	
22.06	tx	C		82	:::49153	6001:db80::200:ff:fe00:7:50003	250	
22.5	tx	C		81	:::49153	6001:db80::200:ff:fe00:7:50002	250	
22.56	tx	C		82	:::49153	6001:db80::200:ff:fe00:7:50003	250	
23	tx	C		81	:::49153	6001:db80::200:ff:fe00:7:50002	250	
23.06	tx	C		82	:::49153	6001:db80::200:ff:fe00:7:50003	250	
23.5	tx	C		81	:::49153	6001:db80::200:ff:fe00:7:50002	250	
23.56	tx	C		82	:::49153	6001:db80::200:ff:fe00:7:50003	250	
24	tx	C		81	:::49153	6001:db80::200:ff:fe00:7:50002	250	
24.06	tx	C		82	:::49153	6001:db80::200:ff:fe00:7:50003	250	
24.5	tx	C		81	:::49153	6001:db80::200:ff:fe00:7:50002	250	
24.56	tx	C		82	:::49153	6001:db80::200:ff:fe00:7:50003	250	
25	tx	C		81	:::49153	6001:db80::200:ff:fe00:7:50002	250	
25.06	tx	C		82	:::49153	6001:db80::200:ff:fe00:7:50003	250	
25.5	tx	C		81	:::49153	6001:db80::200:ff:fe00:7:50002	250	
25.56	tx	C		82	:::49153	6001:db80::200:ff:fe00:7:50003	250	
26	tx	C		81	:::49153	6001:db80::200:ff:fe00:7:50002	250	
26.06	tx	C		82	:::49153	6001:db80::200:ff:fe00:7:50003	250	
26.5	tx	C		81	:::49153	6001:db80::200:ff:fe00:7:50002	250	
26.56	tx	C		82	:::49153	6001:db80::200:ff:fe00:7:50003	250	
27	tx	C		81	:::49153	6001:db80::200:ff:fe00:7:50002	250	
27.06	tx	C		82	:::49153	6001:db80::200:ff:fe00:7:50003	250	
27.5	tx	C		81	:::49153	6001:db80::200:ff:fe00:7:50002	250	
27.56	tx	C		82	:::49153	6001:db80::200:ff:fe00:7:50003	250	
28	tx	C		81	:::49153	6001:db80::200:ff:fe00:7:50002	250	
28.06	tx	C		82	:::49153	6001:db80::200:ff:fe00:7:50003	250	
28.5	tx	C		81	:::49153	6001:db80::200:ff:fe00:7:50002	250	
28.56	tx	C		82	:::49153	6001:db80::200:ff:fe00:7:50003	250	
29	tx	C		81	:::49153	6001:db80::200:ff:fe00:7:50002	250	
29.06	tx	C		82	:::49153	6001:db80::200:ff:fe00:7:50003	250	
29.5	tx	C		81	:::49153	6001:db80::200:ff:fe00:7:50002	250	
29.56	tx	C		82	:::49153	6001:db80::200:ff:fe00:7:50003	250	
30	tx	C		81	:::49153	6001:db80::200:ff:fe00:7:50002	250	
30.06	tx	C		82	:::49153	6001:db80::200:ff:fe00:7:50003	250	
30.5	tx	C		81	:::49153	6001:db80::200:ff:fe00:7:50002	250	
30.56	tx	C		82	:::49153	6001:db80::200:ff:fe00:7:50003	250	
31	tx	C		81	:::49153	6001:db80::200:ff:fe00:7:50002	250	
31.06	tx	C		82	:::49153	6001:db80::200:ff:fe00:7:50003	250	
31.5	tx	C		81	:::49153	6001:db80::200:ff:fe00:7:50002	250	
31.56	tx	C		82	:::49153	6001:db80::200:ff:fe00:7:50003	250	
32	tx	C		81	:::49153	6001:db80::200:ff:fe00:7:50002	250	
32.06	tx	C		82	:::49153	6001:db80::200:ff:fe00:7:50003	250	
32.5	tx	C		81	:::49153	6001:db80::200:ff:fe00:7:50002	250	
32.56	tx	C		82	:::49153	6001:db80::200:ff:fe00:7:50003	250	
6.34	tx	C		95	:::49153	6001:db80::200:ff:fe00:7:50016	250	
6.36	tx	C		87	:::49153	6001:db80::200:ff:fe00:7:50008	250	
6.4	tx	C		96	:::49153	6001:db80::200:ff:fe00:7:50017	250	
6.42	tx	C		88	:::49153	6001:db80::200:ff:fe00:7:50009	250	
6.46	tx	C		97	:::49153	6001:db80::200:ff:fe00:7:50018	250	
6.48	tx	C		89	:::49153	6001:db80::200:ff:fe00:7:50010	250	
6.5	tx	C		81	:::49153	6001:db80::200:ff:fe00:7:50002	250	
6.52	tx	C		98	:::49153	6001:db80::200:ff:fe00:7:50019	250	
6.54	tx	C		90	:::49153	6001:db80::200:ff:fe00:7:50011	250	
6.56	tx	C		82	:::49153	6001:db80::200:ff:fe00:7:50003	250	
6.58	tx	C		99	:::49153	6001:db80::200:ff:fe00:7:50020	250	
6.6	tx	C		91	:::49153	6001:db80::200:ff:fe00:7:50012	250	
6.62	tx	C		83	:::49153	6001:db80::200:ff:fe00:7:50004	250	
6.64	tx	C		100	:::49153	6001:db80::200:ff:fe00:7:50021	250	
6.66	tx	C		92	:::49153	6001:db80::200:ff:fe00:7:50013	250	
6.68	tx	C		84	:::49153	6001:db80::200:ff:fe00:7:50005	250	
6.72	tx	C		93	:::49153	6001:db80::200:ff:fe00:7:50014	250	
6.74	tx	C		85	:::49153	6001:db80::200:ff:fe00:7:50006	250	
6.78	tx	C		94	:::49153	6001:db80::200:ff:fe00:7:50015	250	
6.8	tx	C		86	:::49153	6001:db80::200:ff:fe00:7:50007	250	
6.84	tx	C		95	:::49153	6001:db80::200:ff:fe00:7:50016	250	
6.86	tx	C		87	:::49153	6001:db80::200:ff:fe00:7:50008	250	
6.9	tx	C		96	:::49153	6001:db80::200:ff:fe00:7:50017	250	
6.92	tx	C		88	:::49153	6001:db80::200:ff:fe00:7:50009	250	
6.96	tx	C		97	:::49153	6001:db80::200:ff:fe00:7:50018	250	
6.98	tx	C		89	:::49153	6001:db80::200:ff:fe00:7:50010	250	
7	tx	C		81	:::49153	6001:db80::200:ff:fe00:7:50002	250	
7.02	tx	C		98	:::49153	6001:db80::200:ff:fe00:7:50019	250	
7.04	tx	C		90	:::49153	6001:db80::200:ff:fe00:7:50011	250	
7.06	tx	C		82	:::49153	6001:db80::200:ff:fe00:7:50003	250	
7.08	tx	C		99	:::49153	6001:db80::200:ff:fe00:7:50020	250	
7.1	tx	C		91	:::49153	6001:db80::200:ff:fe00:7:50012	250	
7.12	tx	C		83	:::49153	6001:db80::200:ff:fe00:7:50004	250	
7.14	tx	C		100	:::49153	6001:db80::200:ff:fe00:7:50021	250	
7.16	tx	C		92	:::49153	6001:db80::200:ff:fe00:7:50013	250	
7.18	tx	C		84	:::49153	6001:db80::200:ff:fe00:7:50005	250	
7.22	tx	C		93	:::49153	6001:db80::200:ff:fe00:7:50014	250	
7.24	tx	C		85	:::49153	6001:db80::200:ff:fe00:7:50006	250	
7.28	tx	C		94	:::49153	6001:db80::200:ff:fe00:7:50015	250	
7.3	tx	C		86	:::49153	6001:db80::200:ff:fe00:7:50007	250	
7.34	tx	C		95	:::49153	6001:db80::200:ff:fe00:7:50016	250	
7.36	tx	C		87	:::49153	6001:db80::200:ff:fe00:7:50008	250	
7.4	tx	C		96	:::49153	6001:db80::200:ff:fe00:7:50017	250	
7.42	tx	C		88	:::49153	6001:db80::200:ff:fe00:7:50009	250	
7.46	tx	C		97	:::49153	6001:db80::200:ff:fe00:7:50018	250	
7.48	tx	C		89	:::49153	6001:db80::200:ff:fe00:7:50010	250	
7.5	tx	C		81	:::49153	6001:db80::200:ff:fe00:7:50002	250	
7.52	tx	C		98	:::49153	6001:db80::200:ff:fe00:7:50019	250	
7.54	tx	C		90	:::49153	6001:db80::200:ff:fe00:7:50011	250	
7.56	tx	C		82	:::49153	6001:db80::200:ff:fe00:7:50003	250	
7.58	tx	C		99	:::49153	6001:db80::200:ff:fe00:7:50020	250	
7.6	tx	C		91	:::49153	6001:db80::200:ff:fe00:7:50012	250	
7.62	tx	C		83	:::49153	6001:db80::200:ff:fe00:7:50004	250	
7.64	tx	C		100	:::49153	6001:db80::200:ff:fe00:7:50021	250	
7.66	tx	C		92	:::49153	6001:db80::200:ff:fe00:7:50013	250	
7.68	tx	C		84	:::49153	6001:db80::200:ff:fe00:7:50005	250	
7.72	tx	C		93	:::49153	6001:db80::200:ff:fe00:7:50014	250	
7.74	tx	C		85	:::49153	6001:db80::200:ff:fe00:7:50006	250	
7.78	tx	C		94	:::49153	6001:db80::200:ff:fe00:7:50015	250	
7.8	tx	C		86	:::49153	6001:db80::200:ff:fe00:7:50007	250	
7.84	tx	C		95	:::49153	6001:db80::200:ff:fe00:7:50016	250	
7.86	tx	C		87	:::49153	6001:db80::200:ff:fe00:7:50008	250	
7.9	tx	C		96	:::49153	6001:db80::200:ff:fe00:7:50017	250	
7.92	tx	C		88	:::49153	6001:db80::200:ff:fe00:7:50009	250	
7.96	tx	C		97	:::49153	6001:db80::200:ff:fe00:7:50018	250	
7.98	tx	C		89	:::49153	6001:db80::200:ff:fe00:7:50010	250	
8	tx	C		81	:::49153	6001:db80::200:ff:fe00:7:50002	250	
8.02	tx	C		98	:::49153	6001:db80::200:ff:fe00:7:50019	250	
8.04	tx	C		90	:::49153	6001:db80::200:ff:fe00:7:50011	250	
8.06	tx	C		82	:::49153	6001:db80::200:ff:fe00:7:50003	250	
8.08	tx	C		99	:::49153	6001:db80::200:ff:fe00:7:50020	250	
8.1	tx	C		91	:::49153	6001:db80::200:ff:fe00:7:50012	250	
8.12	tx	C		83	:::49153	6001:db80::200:ff:fe00:7:50004	250	
8.14	tx	C		100	:::49153	6001:db80::200:ff:fe00:7:50021	250	
8.16	tx	C		92	:::49153	6001:db80::200:ff:fe00:7:50013	250	
8.18	tx	C		84	:::49153	6001:db80::200:ff:fe00:7:50005	250	
8.22	tx	C		93	:::49153	6001:db80::200:ff:fe00:7:50014	250	
8.24	tx	C		85	:::49153	6001:db80::200:ff:fe00:7:50006	250	
8.28	tx	C		94	:::49153	6001:db80::200:ff:fe00:7:50015	250	
8.3	tx	C		86	:::49153	6001:db80::200:ff:fe00:7:50007	250	
8.34	tx	C		95	:::49153	6001:db80::200:ff:fe00:7:50016	250	
8.36	tx	C		87	:::49153	6001:db80::200:ff:fe00:7:50008	250	
8.4	tx	C		96	:::49153	6001:db80::200:ff:fe00:7:50017	250	
8.42	tx	C		88	:::49153	6001:db80::200:ff:fe00:7:50009	250	
8.46	tx	C		97	:::49153	6001:db80::200:ff:fe00:7:50018	250	
8.48	tx	C		89	:::49153	6001:db80::200:ff:fe00:7:50010	250	
8.5	tx	C		81	:::49153	6001:db80::200:ff:fe00:7:50002	250	
8.52	tx	C		98	:::49153	6001:db80::200:ff:fe00:7:50019	250	
8.54	tx	C		90	:::49153	6001:db80::200:ff:fe00:7:50011	250	
8.56	tx	C		82	:::49153	6001:db80::200:ff:fe00:7:50003	250	
8.58	tx	C		99	:::49153	6001:db80::200:ff:fe00:7:50020	250	
8.6	tx	C		91	:::49153	6001:db80::200:ff:fe00:7:50012	250	
8.62	tx	C		83	:::49153	6001:db80::200:ff:fe00:7:50004	250	
8.64	tx	C		100	:::49153	6001:db80::200:ff:fe00:7:50021	250	
8.66	tx	C		92	:::49153	6001:db80::200:ff:fe00:7:50013	250	
8.68	tx	C		84	:::49153	6001:db80::200:ff:fe00:7:50005	250	
8.72	tx	C		93	:::49153	6001:db80::200:ff:fe00:7:50014	250	
8.74	tx	C		85	:::49153	6001:db80::200:ff:fe00:7:50006	250	
8.78	tx	C		94	:::49153	6001:db80::200:ff:fe00:7:50015	250	
8.8	tx	C		86	:::49153	6001:db80::200:ff:fe00:7:50007	250	
8.84	tx	C		95	:::49153	6001:db80::200:ff:fe00:7:50016	250	
8.86	tx	C		87	:::49153	6001:db80::200:ff:fe00:7:50008	250	
8.9	tx	C		96	:::49153	6001:db80::200:ff:fe00:7:50017	250	
8.92	tx	C		88	:::49153	6001:db80::200:ff:fe00:7:50009	250	
8.96	tx	C		97	:::49153	6001:db80::200:ff:fe00:7:50018	250	
8.98	tx	C		89	:::49153	6001:db80::200:ff:fe00:7:50010	250	
9	tx	C		81	:::49153	6001:db80::200:ff:fe00:7:50002	250	
9.02	tx	C		98	:::49153	6001:db80::200:ff:fe00:7:50019	250	
9.04	tx	C		90	:::49153	6001:db80::200:ff:fe00:7:50011	250	
9.06	tx	C		82	:::49153	6001:db80::200:ff:fe00:7:50003	250	
9.08	tx	C		99	:::49153	6001:db80::200:ff:fe00:7:50020	250	
9.1	tx	C		91	:::49153	6001:db80::200:ff:fe00:7:50012	250	
9.12	tx	C		83	:::49153	6001:db80::200:ff:fe00:7:50004	250	
9.14	tx	C		100	:::49153	6001:db80::200:ff:fe00:7:50021	250	
9.16	tx	C		92	:::49153	6001:db80::200:ff:fe00:7:50013	250	
9.18	tx	C		84	:::49153	6001:db80::200:ff:fe00:7:50005	250	
9.22	tx	C		93	:::49153	6001:db80::200:ff:fe00:7:50014	250	
9.24	tx	C		85	:::49153	6001:db80::200:ff:fe00:7:50006	250	
9.28	tx	C		94	:::49153	6001:db80::200:ff:fe00:7:50015	250	
9.3	tx	C		86	:::49153	6001:db80::200:ff:fe00:7:50007	250	
9.34	tx	C		95	:::49153	6001:db80::200:ff:fe00:7:50016	250	
9.36	tx	C		87	:::49153	6001:db80::200:ff:fe00:7:50008	250	
9.4	tx	C		96	:::49153	6001:db80::200:ff:fe00:7:50017	250	
9.42	tx	C		88	:::49153	6001:db80::200:ff:fe00:7:50009	250	
9.46	tx	C		97	:::49153	6001:db80::200:ff:fe00:7:50018	250	
9.48	tx	C		89	:::49153	6001:db80::200:ff:fe00:7:50010	250	
9.5	tx	C		81	:::49153	6001:db80::200:ff:fe00:7:50002	250	
9.52	tx	C		98	:::49153	6001:db80::200:ff:fe00:7:50019	250	
9.54	tx	C		90	:::49153	6001:db80::200:ff:fe00:7:50011	250	
9.56	tx	C		82	:::49153	6001:db80::200:ff:fe00:7:50003	250	
9.58	tx	C		99	:::49153	6001:db80::200:ff:fe00:7:50020	250	
9.6	tx	C		91	:::49153	6001:db80::200:ff:fe00:7:50012	250	
9.62	tx	C		83	:::49153	6001:db80::200:ff:fe00:7:50004	250	
9.64	tx	C		100	:::49153	6001:db80::200:ff:fe00:7:50021	250	
9.66	tx	C		92	:::49153	6001:db80::200:ff:fe00:7:50013	250	
9.68	tx	C		84	:::49153	6001:db80::200:ff:fe00:7:50005	250	
9.72	tx	C		93	:::49153	6001:db80::200:ff:fe00:7:50014	250	
9.74	tx	C		85	:::49153	6001:db80::200:ff:fe00:7:50006	250	
9.78	tx	C		94	:::49153	6001:db80::200:ff:fe00:7:50015	250	
9.8	tx	C		86	:::49153	6001:db80::200:ff:fe00:7:50007	250	
9.84	tx	C		95	:::49153	6001:db80::200:ff:fe00:7:50016	250	
9.86	tx	C		87	:::49153	6001:db80::200:ff:fe00:7:50008	250	
9.9	tx	C		96	:::49153	6001:db80::200:ff:fe00:7:50017	250	
9.92	tx	C		88	:::49153	6001:db80::200:ff:fe00:7:50009	250	
9.96	tx	C		97	:::49153	6001:db80::200:ff:fe00:7:50018	250	
9.98	tx	C		89	:::49153	6001:db80::200:ff:fe00:7:50010	250	
10	tx	C		81	:::49153	6001:db80::200:ff:fe00:7:50002	250	
10.02	tx	C		98	:::49153	6001:db80::200:ff:fe00:7:50019	250	
10.04	tx	C		90	:::49153	6001:db80::200:ff:fe00:7:50011	250	
10.06	tx	C		82	:::49153	6001:db80::200:ff:fe00:7:50003	250	
10.08	tx	C		99	:::49153	6001:db80::200:ff:fe00:7:50020	250	
10.1	tx	C		91	:::49153	6001:db80::200:ff:fe00:7:50012	250	
10.12	tx	C		83	:::49153	6001:db80::200:ff:fe00:7:50004	250	
10.14	tx	C		100	:::49153	6001:db80::200:ff:fe00:7:50021	250	
10.16	tx	C		92	:::49153	6001:db80::200:ff:fe00:7:50013	250	
10.18	tx	C		84	:::49153	6001:db80::200:ff:fe00:7:50005	250	
10.22	tx	C		93	:::49153	6001:db80::200:ff:fe00:7:50014	250	
10.24	tx	C		85	:::49153	6001:db80::200:ff:fe00:7:50006	250	
10.28	tx	C		94	:::49153	6001:db80::200:ff:fe00:7:50015	250	
10.3	tx	C		86	:::49153	6001:db80::200:ff:fe00:7:50007	250	
10.34	tx	C		95	:::49153	6001:db80::200:ff:fe00:7:50016	250	
10.36	tx	C		87	:::49153	6001:db80::200:ff:fe00:7:50008	250	
10.4	tx	C		96	:::49153	6001:db80::200:ff:fe00:7:50017	250	
10.42	tx	C		88	:::49153	6001:db80::200:ff:fe00:7:50009	250	
10.46	tx	C		97	:::49153	6001:db80::200:ff:fe00:7:50018	250	
10.48	tx	C		89	:::49153	6001:db80::200:ff:fe00:7:50010	250	
10.5	tx	C		81	:::49153	6001:db80::200:ff:fe00:7:50002	250	
10.52	tx	C		98	:::49153	6001:db80::200:ff:fe00:7:50019	250	
10.54	tx	C		90	:::49153	6001:db80::200:ff:fe00:7:50011	250	
10.56	tx	C		82	:::49153	6001:db80::200:ff:fe00:7:50003	250	
10.58	tx	C		99	:::49153	6001:db80::200:ff:fe00:7:50020	250	
10.6	tx	C		91	:::49153	6001:db80::200:ff:fe00:7:50012	250	
10.62	tx	C		83	:::49153	6001:db80::200:ff:fe00:7:50004	250	
10.64	tx	C		100	:::49153	6001:db80::200:ff:fe00:7:50021	250	
10.66	tx	C		92	:::49153	6001:db80::200:ff:fe00:7:50013	250	
10.68	tx	C		84	:::49153	6001:db80::200:ff:fe00:7:50005	250	
10.72	tx	C		93	:::49153	6001:db80::200:ff:fe00:7:50014	250	
10.74	tx	C		85	:::49153	6001:db80::200:ff:fe00:7:50006	250	
10.78	tx	C		94	:::49153	6001:db80::200:ff:fe00:7:50015	250	
10.8	tx	C		86	:::49153	6001:db80::200:ff:fe00:7:50007	250	
10.84	tx	C		95	:::49153	6001:db80::200:ff:fe00:7:50016	250	
10.86	tx	C		87	:::49153	6001:db80::200:ff:fe00:7:50008	250	
10.9	tx	C		96	:::49153	6001:db80::200:ff:fe00:7:50017	250	
10.92	tx	C		88	:::49153	6001:db80::200:ff:fe00:7:50009	250	
10.96	tx	C		97	:::49153	6001:db80::200:ff:fe00:7:50018	250	
10.98	tx	C		89	:::49153	6001:db80::200:ff:fe00:7:50010	250	
11	tx	C		81	:::49153	6001:db80::200:ff:fe00:7:50002	250	
11.02	tx	C		98	:::49153	6001:db80::200:ff:fe00:7:50019	250	
11.04	tx	C		90	:::49153	6001:db80::200:ff:fe00:7:50011	250	
11.06	tx	C		82	:::49153	6001:db80::200:ff:fe00:7:50003	250	
11.08	tx	C		99	:::49153	6001:db80::200:ff:fe00:7:50020	250	
11.1	tx	C		91	:::49153	6001:db80::200:ff:fe00:7:50012	250	
11.12	tx	C		83	:::49153	6001:db80::200:ff:fe00:7:50004	250	
11.14	tx	C		100	:::49153	6001:db80::200:ff:fe00:7:50021	250	
11.16	tx	C		92	:::49153	6001:db80::200:ff:fe00:7:50013	250	
11.18	tx	C		84	:::49153	6001:db80::200:ff:fe00:7:50005	250	
11.22	tx	C		93	:::49153	6001:db80::200:ff:fe00:7:50014	250	
11.24	tx	C		85	:::49153	6001:db80::200:ff:fe00:7:50006	250	
11.28	tx	C		94	:::49153	6001:db80::200:ff:fe00:7:50015	250	
11.3	tx	C		86	:::49153	6001:db80::200:ff:fe00:7:50007	250	
11.34	tx	C		95	:::49153	6001:db80::200:ff:fe00:7:50016	250	
11.36	tx	C		87	:::49153	6001:db80::200:ff:fe00:7:50008	250	
11.4	tx	C		96	:::49153	6001:db80::200:ff:fe00:7:50017	250	
11.42	tx	C		88	:::49153	6001:db80::200:ff:fe00:7:50009	250	
11.46	tx	C		97	:::49153	6001:db80::200:ff:fe00:7:50018	250	
11.48	tx	C		89	:::49153	6001:db80::200:ff:fe00:7:50010	250	
11.5	tx	C		81	:::49153	6001:db80::200:ff:fe00:7:50002	250	
11.52	tx	C		98	:::49153	6001:db80::200:ff:fe00:7:50019	250	
11.54	tx	C		90	:::49153	6001:db80::200:ff:fe00:7:50011	250	
11.56	tx	C		82	:::49153	6001:db80::200:ff:fe00:7:50003	250	
11.58	tx	C		99	:::49153	6001:db80::200:ff:fe00:7:50020	250	
11.6	tx	C		91	:::49153	6001:db80::200:ff:fe00:7:50012	250	
11.62	tx	C		83	:::49153	6001:db80::200:ff:fe00:7:50004	250	
11.64	tx	C		100	:::49153	6001:db80::200:ff:fe00:7:50021	250	
11.66	tx	C		92	:::49153	6001:db80::200:ff:fe00:7:50013	250	
11.68	tx	C		84	:::49153	6001:db80::200:ff:fe00:7:50005	250	
11.72	tx	C		93	:::49153	6001:db80::200:ff:fe00:7:50014	250	
11.74	tx	C		85	:::49153	6001:db80::200:ff:fe00:7:50006	250	
11.78	tx	C		94	:::49153	6001:db80::200:ff:fe00:7:50015	250	
11.8	tx	C		86	:::49153	6001:db80::200:ff:fe00:7:50007	250	
11.84	tx	C		95	:::49153	6001:db80::200:ff:fe00:7:50016	250	
11.86	tx	C		87	:::49153	6001:db80::200:ff:fe00:7:50008	250	
11.9	tx	C		96	:::49153	6001:db80::200:ff:fe00:7:50017	250	
11.92	tx	C		88	:::49153	6001:db80::200:ff:fe00:7:50009	250	
11.96	tx	C		97	:::49153	6001:db80::200:ff:fe00:7:50018	250	
11.98	tx	C		89	:::49153	6001:db80::200:ff:fe00:7:50010	250	
12	tx	C		81	:::49153	6001:db80::200:ff:fe00:7:50002	250	
12.02	tx	C		98	:::49153	6001:db80::200:ff:fe00:7:50019	250	
12.04	tx	C		90	:::49153	6001:db80::200:ff:fe00:7:50011	250	
12.06	tx	C		82	:::49153	6001:db80::200:ff:fe00:7:50003	250	
12.08	tx	C		99	:::49153	6001:db80::200:ff:fe00:7:50020	250	
12.1	tx	C		91	:::49153	6001:db80::200:ff:fe00:7:50012	250	
12.12	tx	C		83	:::49153	6001:db80::200:ff:fe00:7:50004	250	
12.14	tx	C		100	:::49153	6001:db80::200:ff:fe00:7:50021	250	
12.16	tx	C		92	:::49153	6001:db80::200:ff:fe00:7:50013	250	
12.18	tx	C		84	:::49153	6001:db80::200:ff:fe00:7:50005	250	
12.22	tx	C		93	:::49153	6001:db80::200:ff:fe00:7:50014	250	
12.24	tx	C		85	:::49153	6001:db80::200:ff:fe00:7:50006	250	
12.28	tx	C		94	:::49153	6001:db80::200:ff:fe00:7:50015	250	
12.3	tx	C		86	:::49153	6001:db80::200:ff:fe00:7:50007	250	
12.34	tx	C		95	:::49153	6001:db80::200:ff:fe00:7:50016	250	
12.36	tx	C		87	:::49153	6001:db80::200:ff:fe00:7:50008	250	
12.4	tx	C		96	:::49153	6001:db80::200:ff:fe00:7:50017	250	
12.42	tx	C		88	:::49153	6001:db80::200:ff:fe00:7:50009	250	
12.46	tx	C		97	:::49153	6001:db80::200:ff:fe00:7:50018	250	
12.48	tx	C		89	:::49153	6001:db80::200:ff:fe00:7:50010	250	
12.5	tx	C		81	:::49153	6001:db80::200:ff:fe00:7:50002	250	
12.52	tx	C		98	:::49153	6001:db80::200:ff:fe00:7:50019	250	
12.54	tx	C		90	:::49153	6001:db80::200:ff:fe00:7:50011	250	
12.56	tx	C		82	:::49153	6001:db80::200:ff:fe00:7:50003	250	
12.58	tx	C		99	:::49153	6001:db80::200:ff:fe00:7:50020	250	
12.6	tx	C		91	:::49153	6001:db80::200:ff:fe00:7:50012	250	
12.62	tx	C		83	:::49153	6001:db80::200:ff:fe00:7:50004	250	
12.64	tx	C		100	:::49153	6001:db80::200:ff:fe00:7:50021	250	
12.66	tx	C		92	:::49153	6001:db80::200:ff:fe00:7:50013	250	
12.68	tx	C		84	:::49153	6001:db80::200:ff:fe00:7:50005	250	
12.72	tx	C		93	:::49153	6001:db80::200:ff:fe00:7:50014	250	
12.74	tx	C		85	:::49153	6001:db80::200:ff:fe00:7:50006	250	
12.78	tx	C		94	:::49153	6001:db80::200:ff:fe00:7:50015	250	
12.8	tx	C		86	:::49153	6001:db80::200:ff:fe00:7:50007	250	
12.84	tx	C		95	:::49153	6001:db80::200:ff:fe00:7:50016	250	
12.86	tx	C		87	:::49153	6001:db80::200:ff:fe00:7:50008	250	
12.9	tx	C		96	:::49153	6001:db80::200:ff:fe00:7:50017	250	
12.92	tx	C		88	:::49153	6001:db80::200:ff:fe00:7:50009	250	
12.96	tx	C		97	:::49153	6001:db80::200:ff:fe00:7:50018	250	
12.98	tx	C		89	:::49153	6001:db80::200:ff:fe00:7:50010	250	
13	tx	C		81	:::49153	6001:db80::200:ff:fe00:7:50002	250	
13.02	tx	C		98	:::49153	6001:db80::200:ff:fe00:7:50019	250	
13.04	tx	C		90	:::49153	6001:db80::200:ff:fe00:7:50011	250	
13.06	tx	C		82	:::49153	6001:db80::200:ff:fe00:7:50003	250	
13.08	tx	C		99	:::49153	6001:db80::200:ff:fe00:7:50020	250	
13.1	tx	C		91	:::49153	6001:db80::200:ff:fe00:7:50012	250	
13.12	tx	C		83	:::49153	6001:db80::200:ff:fe00:7:50004	250	
13.14	tx	C		100	:::49153	6001:db80::200:ff:fe00:7:50021	250	
13.16	tx	C		92	:::49153	6001:db80::200:ff:fe00:7:50013	250	
13.18	tx	C		84	:::49153	6001:db80::200:ff:fe00:7:50005	250	
13.22	tx	C		93	:::49153	6001:db80::200:ff:fe00:7:50014	250	
13.24	tx	C		85	:::49153	6001:db80::200:ff:fe00:7:50006	250	
13.28	tx	C		94	:::49153	6001:db80::200:ff:fe00:7:50015	250	
13.3	tx	C		86	:::49153	6001:db80::200:ff:fe00:7:50007	250	
13.34	tx	C		95	:::49153	6001:db80::200:ff:fe00:7:50016	250	
13.36	tx	C		87	:::49153	6001:db80::200:ff:fe00:7:50008	250	
13.4	tx	C		96	:::49153	6001:db80::200:ff:fe00:7:50017	250	
13.42	tx	C		88	:::49153	6001:db80::200:ff:fe00:7:50009	250	
13.46	tx	C		97	:::49153	6001:db80::200:ff:fe00:7:50018	250	
13.48	tx	C		89	:::49153	6001:db80::200:ff:fe00:7:50010	250	
13.5	tx	C		81	:::49153	6001:db80::200:ff:fe00:7:50002	250	
13.52	tx	C		98	:::49153	6001:db80::200:ff:fe00:7:50019	250	
13.54	tx	C		90	:::49153	6001:db80::200:ff:fe00:7:50011	250	
13.56	tx	C		82	:::49153	6001:db80::200:ff:fe00:7:50003	250	
13.58	tx	C		99	:::49153	6001:db80::200:ff:fe00:7:50020	250	
13.6	tx	C		91	:::49153	6001:db80::200:ff:fe00:7:50012	250	
13.62	tx	C		83	:::49153	6001:db80::200:ff:fe00:7:50004	250	
13.64	tx	C		100	:::49153	6001:db80::200:ff:fe00:7:50021	250	
13.66	tx	C		92	:::49153	6001:db80::200:ff:fe00:7:50013	250	
13.68	tx	C		84	:::49153	6001:db80::200:ff:fe00:7:50005	250	
13.72	tx	C		93	:::49153	6001:db80::200:ff:fe00:7:50014	250	
13.74	tx	C		85	:::49153	6001:db80::200:ff:fe00:7:50006	250	
13.78	tx	C		94	:::49153	6001:db80::200:ff:fe00:7:50015	250	
13.8	tx	C		86	:::49153	6001:db80::200:ff:fe00:7:50007	250	
13.84	tx	C		95	:::49153	6001:db80::200:ff:fe00:7:50016	250	
13.86	tx	C		87	:::49153	6001:db80::200:ff:fe00:7:50008	250	
13.9	tx	C		96	:::49153	6001:db80::200:ff:fe00:7:50017	250	
13.92	tx	C		88	:::49153	6001:db80::200:ff:fe00:7:50009	250	
13.96	tx	C		97	:::49153	6001:db80::200:ff:fe00:7:50018	250	
13.98	tx	C		89	:::49153	6001:db80::200:ff:fe00:7:50010	250	
14	tx	C		81	:::49153	6001:db80::200:ff:fe00:7:50002	250	
14.02	tx	C		98	:::49153	6001:db80::200:ff:fe00:7:50019	250	
14.04	tx	C		90	:::49153	6001:db80::200:ff:fe00:7:50011	250	
14.06	tx	C		82	:::49153	6001:db80::200:ff:fe00:7:50003	250	
14.08	tx	C		99	:::49153	6001:db80::200:ff:fe00:7:50020	250	
14.1	tx	C		91	:::49153	6001:db80::200:ff:fe00:7:50012	250	
14.12	tx	C		83	:::49153	6001:db80::200:ff:fe00:7:50004	250	
14.14	tx	C		100	:::49153	6001:db80::200:ff:fe00:7:50021	250	
14.16	tx	C		92	:::49153	6001:db80::200:ff:fe00:7:50013	250	
14.18	tx	C		84	:::49153	6001:db80::200:ff:fe00:7:50005	250	
14.22	tx	C		93	:::49153	6001:db80::200:ff:fe00:7:50014	250	
14.24	tx	C		85	:::49153	6001:db80::200:ff:fe00:7:50006	250	
14.28	tx	C		94	:::49153	6001:db80::200:ff:fe00:7:50015	250	
14.3	tx	C		86	:::49153	6001:db80::200:ff:fe00:7:50007	250	
14.34	tx	C		95	:::49153	6001:db80::200:ff:fe00:7:50016	250	
14.36	tx	C		87	:::49153	6001:db80::200:ff:fe00:7:50008	250	
14.4	tx	C		96	:::49153	6001:db80::200:ff:fe00:7:50017	250	
14.42	tx	C		88	:::49153	6001:db80::200:ff:fe00:7:50009	250	
14.46	tx	C		97	:::49153	6001:db80::200:ff:fe00:7:50018	250	
14.48	tx	C		89	:::49153	6001:db80::200:ff:fe00:7:50010	250	
14.5	tx	C		81	:::49153	6001:db80::200:ff:fe00:7:50002	250	
14.52	tx	C		98	:::49153	6001:db80::200:ff:fe00:7:50019	250	
14.54	tx	C		90	:::49153	6001:db80::200:ff:fe00:7:50011	250	
14.56	tx	C		82	:::49153	6001:db80::200:ff:fe00:7:50003	250	
14.58	tx	C		99	:::49153	6001:db80::200:ff:fe00:7:50020	250	
14.6	tx	C		91	:::49153	6001:db80::200:ff:fe00:7:50012	250	
14.62	tx	C		83	:::49153	6001:db80::200:ff:fe00:7:50004	250	
14.64	tx	C		100	:::49153	6001:db80::200:ff:fe00:7:50021	250	
14.66	tx	C		92	:::49153	6001:db80::200:ff:fe00:7:50013	250	
14.68	tx	C		84	:::49153	6001:db80::200:ff:fe00:7:50005	250	
14.72	tx	C		93	:::49153	6001:db80::200:ff:fe00:7:50014	250	
14.74	tx	C		85	:::49153	6001:db80::200:ff:fe00:7:50006	250	
14.78	tx	C		94	:::49153	6001:db80::200:ff:fe00:7:50015	250	
14.8	tx	C		86	:::49153	6001:db80::200:ff:fe00:7:50007	250	
14.84	tx	C		95	:::49153	6001:db80::200:ff:fe00:7:50016	250	
14.86	tx	C		87	:::49153	6001:db80::200:ff:fe00:7:50008	250	
14.9	tx	C		96	:::49153	6001:db80::200:ff:fe00:7:50017	250	
14.92	tx	C		88	:::49153	6001:db80::200:ff:fe00:7:50009	250	
14.96	tx	C		97	:::49153	6001:db80::200:ff:fe00:7:50018	250	
14.98	tx	C		89	:::49153	6001:db80::200:ff:fe00:7:50010	250	
15	tx	C		81	:::49153	6001:db80::200:ff:fe00:7:50002	250	
15.02	tx	C		98	:::49153	6001:db80::200:ff:fe00:7:50019	250	
15.04	tx	C		90	:::49153	6001:db80::200:ff:fe00:7:50011	250	
15.06	tx	C		82	:::49153	6001:db80::200:ff:fe00:7:50003	250	
15.08	tx	C		99	:::49153	6001:db80::200:ff:fe00:7:50020	250	
15.1	tx	C		91	:::49153	6001:db80::200:ff:fe00:7:50012	250	
15.12	tx	C		83	:::49153	6001:db80::200:ff:fe00:7:50004	250	
15.14	tx	C		100	:::49153	6001:db80::200:ff:fe00:7:50021	250	
15.16	tx	C		92	:::49153	6001:db80::200:ff:fe00:7:50013	250	
15.18	tx	C		84	:::49153	6001:db80::200:ff:fe00:7:50005	250	
15.22	tx	C		93	:::49153	6001:db80::200:ff:fe00:7:50014	250	
15.24	tx	C		85	:::49153	6001:db80::200:ff:fe00:7:50006	250	
15.28	tx	C		94	:::49153	6001:db80::200:ff:fe00:7:50015	250	
15.3	tx	C		86	:::49153	6001:db80::200:ff:fe00:7:50007	250	
15.34	tx	C		95	:::49153	6001:db80::200:ff:fe00:7:50016	250	
15.36	tx	C		87	:::49153	6001:db80::200:ff:fe00:7:50008	250	
15.4	tx	C		96	:::49153	6001:db80::200:ff:fe00:7:50017	250	
15.42	tx	C		88	:::49153	6001:db80::200:ff:fe00:7:50009	250	
15.46	tx	C		97	:::49153	6001:db80::200:ff:fe00:7:50018	250	
15.48	tx	C		89	:::49153	6001:db80::200:ff:fe00:7:50010	250	
15.5	tx	C		81	:::49153	6001:db80::200:ff:fe00:7:50002	250	
15.52	tx	C		98	:::49153	6001:db80::200:ff:fe00:7:50019	250	
15.54	tx	C		90	:::49153	6001:db80::200:ff:fe00:7:50011	250	
15.56	tx	C		82	:::49153	6001:db80::200:ff:fe00:7:50003	250	
15.58	tx	C		99	:::49153	6001:db80::200:ff:fe00:7:50020	250	
15.6	tx	C		91	:::49153	6001:db80::200:ff:fe00:7:50012	250	
15.62	tx	C		83	:::49153	6001:db80::200:ff:fe00:7:50004	250	
15.64	tx	C		100	:::49153	6001:db80::200:ff:fe00:7:50021	250	
15.66	tx	C		92	:::49153	6001:db80::200:ff:fe00:7:50013	250	
15.68	tx	C		84	:::49153	6001:db80::200:ff:fe00:7:50005	250	
15.72	tx	C		93	:::49153	6001:db80::200:ff:fe00:7:50014	250	
15.74	tx	C		85	:::49153	6001:db80::200:ff:fe00:7:50006	250	
15.78	tx	C		94	:::49153	6001:db80::200:ff:fe00:7:50015	250	
15.8	tx	C		86	:::49153	6001:db80::200:ff:fe00:7:50007	250	
15.84	tx	C		95	:::49153	6001:db80::200:ff:fe00:7:50016	250	
15.86	tx	C		87	:::49153	6001:db80::200:ff:fe00:7:50008	250	
15.9	tx	C		96	:::49153	6001:db80::200:ff:fe00:7:50017	250	
15.92	tx	C		88	:::49153	6001:db80::200:ff:fe00:7:50009	250	
15.96	tx	C		97	:::49153	6001:db80::200:ff:fe00:7:50018	250	
15.98	tx	C		89	:::49153	6001:db80::200:ff:fe00:7:50010	250	
16	tx	C		81	:::49153	6001:db80::200:ff:fe00:7:50002	250	
16.02	tx	C		98	:::49153	6001:db80::200:ff:fe00:7:50019	250	
16.04	tx	C		90	:::49153	6001:db80::200:ff:fe00:7:50011	250	
16.06	tx	C		82	:::49153	6001:db80::200:ff:fe00:7:50003	250	
16.08	tx	C		99	:::49153	6001:db80::200:ff:fe00:7:50020	250	
16.1	tx	C		91	:::49153	6001:db80::200:ff:fe00:7:50012	250	
16.12	tx	C		83	:::49153	6001:db80::200:ff:fe00:7:50004	250	
16.14	tx	C		100	:::49153	6001:db80::200:ff:fe00:7:50021	250	
16.16	tx	C		92	:::49153	6001:db80::200:ff:fe00:7:50013	250	
16.18	tx	C		84	:::49153	6001:db80::200:ff:fe00:7:50005	250	
16.22	tx	C		93	:::49153	6001:db80::200:ff:fe00:7:50014	250	
16.24	tx	C		85	:::49153	6001:db80::200:ff:fe00:7:50006	250	
16.28	tx	C		94	:::49153	6001:db80::200:ff:fe00:7:50015	250	
16.3	tx	C		86	:::49153	6001:db80::200:ff:fe00:7:50007	250	
16.34	tx	C		95	:::49153	6001:db80::200:ff:fe00:7:50016	250	
16.36	tx	C		87	:::49153	6001:db80::200:ff:fe00:7:50008	250	
16.4	tx	C		96	:::49153	6001:db80::200:ff:fe00:7:50017	250	
16.42	tx	C		88	:::49153	6001:db80::200:ff:fe00:7:50009	250	
16.46	tx	C		97	:::49153	6001:db80::200:ff:fe00:7:50018	250	
16.48	tx	C		89	:::49153	6001:db80::200:ff:fe00:7:50010	250	
16.5	tx	C		81	:::49153	6001:db80::200:ff:fe00:7:50002	250	
16.52	tx	C		98	:::49153	6001:db80::200:ff:fe00:7:50019	250	
16.54	tx	C		90	:::49153	6001:db80::200:ff:fe00:7:50011	250	
16.56	tx	C		82	:::49153	6001:db80::200:ff:fe00:7:50003	250	
16.58	tx	C		99	:::49153	6001:db80::200:ff:fe00:7:50020	250	
16.6	tx	C		91	:::49153	6001:db80::200:ff:fe00:7:50012	250	
16.62	tx	C		83	:::49153	6001:db80::200:ff:fe00:7:50004	250	
16.64	tx	C		100	:::49153	6001:db80::200:ff:fe00:7:50021	250	
16.66	tx	C		92	:::49153	6001:db80::200:ff:fe00:7:50013	250	
16.68	tx	C		84	:::49153	6001:db80::200:ff:fe00:7:50005	250	
16.72	tx	C		93	:::49153	6001:db80::200:ff:fe00:7:50014	250	
16.74	tx	C		85	:::49153	6001:db80::200:ff:fe00:7:50006	250	
16.78	tx	C		94	:::49153	6001:db80::200:ff:fe00:7:50015	250	
16.8	tx	C		86	:::49153	6001:db80::200:ff:fe00:7:50007	250	
16.84	tx	C		95	:::49153	6001:db80::200:ff:fe00:7:50016	250	
16.86	tx	C		87	:::49153	6001:db80::200:ff:fe00:7:50008	250	
16.9	tx	C		96	:::49153	6001:db80::200:ff:fe00:7:50017	250	
16.92	tx	C		88	:::49153	6001:db80::200:ff:fe00:7:50009	250	
16.96	tx	C		97	:::49153	6001:db80::200:ff:fe00:7:50018	250	
16.98	tx	C		89	:::49153	6001:db80::200:ff:fe00:7:50010	250	
17	tx	C		81	:::49153	6001:db80::200:ff:fe00:7:50002	250	
17.02	tx	C		98	:::49153	6001:db80::200:ff:fe00:7:50019	250	
17.04	tx	C		90	:::49153	6001:db80::200:ff:fe00:7:50011	250	
17.06	tx	C		82	:::49153	6001:db80::200:ff:fe00:7:50003	250	
17.08	tx	C		99	:::49153	6001:db80::200:ff:fe00:7:50020	250	
17.1	tx	C		91	:::49153	6001:db80::200:ff:fe00:7:50012	250	
17.12	tx	C		83	:::49153	6001:db80::200:ff:fe00:7:50004	250	
17.14	tx	C		100	:::49153	6001:db80::200:ff:fe00:7:50021	250	
17.16	tx	C		92	:::49153	6001:db80::200:ff:fe00:7:50013	250	
17.18	tx	C		84	:::49153	6001:db80::200:ff:fe00:7:50005	250	
17.22	tx	C		93	:::49153	6001:db80::200:ff:fe00:7:50014	250	
17.24	tx	C		85	:::49153	6001:db80::200:ff:fe00:7:50006	250	
17.28	tx	C		94	:::49153	6001:db80::200:ff:fe00:7:50015	250	
17.3	tx	C		86	:::49153	6001:db80::200:ff:fe00:7:50007	250	
17.34	tx	C		95	:::49153	6001:db80::200:ff:fe00:7:50016	250	
17.36	tx	C		87	:::49153	6001:db80::200:ff:fe00:7:50008	250	
17.4	tx	C		96	:::49153	6001:db80::200:ff:fe00:7:50017	250	
17.42	tx	C		88	:::49153	6001:db80::200:ff:fe00:7:50009	250	
17.46	tx	C		97	:::49153	6001:db80::200:ff:fe00:7:50018	250	
17.48	tx	C		89	:::49153	6001:db80::200:ff:fe00:7:50010	250	
17.5	tx	C		81	:::49153	6001:db80::200:ff:fe00:7:50002	250	
17.52	tx	C		98	:::49153	6001:db80::200:ff:fe00:7:50019	250	
17.54	tx	C		90	:::49153	6001:db80::200:ff:fe00:7:50011	250	
17.56	tx	C		82	:::49153	6001:db80::200:ff:fe00:7:50003	250	
17.58	tx	C		99	:::49153	6001:db80::200:ff:fe00:7:50020	250	
17.6	tx	C		91	:::49153	6001:db80::200:ff:fe00:7:50012	250	
17.62	tx	C		83	:::49153	6001:db80::200:ff:fe00:7:50004	250	
17.64	tx	C		100	:::49153	6001:db80::200:ff:fe00:7:50021	250	
17.66	tx	C		92	:::49153	6001:db80::200:ff:fe00:7:50013	250	
17.68	tx	C		84	:::49153	6001:db80::200:ff:fe00:7:50005	250	
17.72	tx	C		93	:::49153	6001:db80::200:ff:fe00:7:50014	250	
17.74	tx	C		85	:::49153	6001:db80::200:ff:fe00:7:50006	250	
17.78	tx	C		94	:::49153	6001:db80::200:ff:fe00:7:50015	250	
17.8	tx	C		86	:::49153	6001:db80::200:ff:fe00:7:50007	250	
17.84	tx	C		95	:::49153	6001:db80::200:ff:fe00:7:50016	250	
17.86	tx	C		87	:::49153	6001:db80::200:ff:fe00:7:50008	250	
17.9	tx	C		96	:::49153	6001:db80::200:ff:fe00:7:50017	250	
17.92	tx	C		88	:::49153	6001:db80::200:ff:fe00:7:50009	250	
17.96	tx	C		97	:::49153	6001:db80::200:ff:fe00:7:50018	250	
17.98	tx	C		89	:::49153	6001:db80::200:ff:fe00:7:50010	250	
18	tx	C		81	:::49153	6001:db80::200:ff:fe00:7:50002	250	
18.02	tx	C		98	:::49153	6001:db80::200:ff:fe00:7:50019	250	
18.04	tx	C		90	:::49153	6001:db80::200:ff:fe00:7:50011	250	
18.06	tx	C		82	:::49153	6001:db80::200:ff:fe00:7:50003	250	
18.08	tx	C		99	:::49153	6001:db80::200:ff:fe00:7:50020	250	
18.1	tx	C		91	:::49153	6001:db80::200:ff:fe00:7:50012	250	
18.12	tx	C		83	:::49153	6001:db80::200:ff:fe00:7:50004	250	
18.14	tx	C		100	:::49153	6001:db80::200:ff:fe00:7:50021	250	
18.16	tx	C		92	:::49153	6001:db80::200:ff:fe00:7:50013	250	
18.18	tx	C		84	:::49153	6001:db80::200:ff:fe00:7:50005	250	
18.22	tx	C		93	:::49153	6001:db80::200:ff:fe00:7:50014	250	
18.24	tx	C		85	:::49153	6001:db80::200:ff:fe00:7:50006	250	
18.28	tx	C		94	:::49153	6001:db80::200:ff:fe00:7:50015	250	
18.3	tx	C		86	:::49153	6001:db80::200:ff:fe00:7:50007	250	
18.34	tx	C		95	:::49153	6001:db80::200:ff:fe00:7:50016	250	
18.36	tx	C		87	:::49153	6001:db80::200:ff:fe00:7:50008	250	
18.4	tx	C		96	:::49153	6001:db80::200:ff:fe00:7:50017	250	
18.42	tx	C		88	:::49153	6001:db80::200:ff:fe00:7:50009	250	
18.46	tx	C		97	:::49153	6001:db80::200:ff:fe00:7:50018	250	
18.48	tx	C		89	:::49153	6001:db80::200:ff:fe00:7:50010	250	
18.5	tx	C		81	:::49153	6001:db80::200:ff:fe00:7:50002	250	
18.52	tx	C		98	:::49153	6001:db80::200:ff:fe00:7:50019	250	
18.54	tx	C		90	:::49153	6001:db80::200:ff:fe00:7:50011	250	
18.56	tx	C		82	:::49153	6001:db80::200:ff:fe00:7:50003	250	
18.58	tx	C		99	:::49153	6001:db80::200:ff:fe00:7:50020	250	
18.6	tx	C		91	:::49153	6001:db80::200:ff:fe00:7:50012	250	
18.62	tx	C		83	:::49153	6001:db80::200:ff:fe00:7:50004	250	
18.64	tx	C		100	:::49153	6001:db80::200:ff:fe00:7:50021	250	
18.66	tx	C		92	:::49153	6001:db80::200:ff:fe00:7:50013	250	
18.68	tx	C		84	:::49153	6001:db80::200:ff:fe00:7:50005	250	
18.72	tx	C		93	:::49153	6001:db80::200:ff:fe00:7:50014	250	
18.74	tx	C		85	:::49153	6001:db80::200:ff:fe00:7:50006	250	
18.78	tx	C		94	:::49153	6001:db80::200:ff:fe00:7:50015	250	
18.8	tx	C		86	:::49153	6001:db80::200:ff:fe00:7:50007	250	
18.84	tx	C		95	:::49153	6001:db80::200:ff:fe00:7:50016	250	
18.86	tx	C		87	:::49153	6001:db80::200:ff:fe00:7:50008	250	
18.9	tx	C		96	:::49153	6001:db80::200:ff:fe00:7:50017	250	
18.92	tx	C		88	:::49153	6001:db80::200:ff:fe00:7:50009	250	
18.96	tx	C		97	:::49153	6001:db80::200:ff:fe00:7:50018	250	
18.98	tx	C		89	:::49153	6001:db80::200:ff:fe00:7:50010	250	
19	tx	C		81	:::49153	6001:db80::200:ff:fe00:7:50002	250	
19.02	tx	C		98	:::49153	6001:db80::200:ff:fe00:7:50019	250	
19.04	tx	C		90	:::49153	6001:db80::200:ff:fe00:7:50011	250	
19.06	tx	C		82	:::49153	6001:db80::200:ff:fe00:7:50003	250	
19.08	tx	C		99	:::49153	6001:db80::200:ff:fe00:7:50020	250	
19.1	tx	C		91	:::49153	6001:db80::200:ff:fe00:7:50012	250	
19.12	tx	C		83	:::49153	6001:db80::200:ff:fe00:7:50004	250	
19.14	tx	C		100	:::49153	6001:db80::200:ff:fe00:7:50021	250	
19.16	tx	C		92	:::49153	6001:db80::200:ff:fe00:7:50013	250	
19.18	tx	C		84	:::49153	6001:db80::200:ff:fe00:7:50005	250	
19.22	tx	C		93	:::49153	6001:db80::200:ff:fe00:7:50014	250	
19.24	tx	C		85	:::49153	6001:db80::200:ff:fe00:7:50006	250	
19.28	tx	C		94	:::49153	6001:db80::200:ff:fe00:7:50015	250	
19.3	tx	C		86	:::49153	6001:db80::200:ff:fe00:7:50007	250	
19.34	tx	C		95	:::49153	6001:db80::200:ff:fe00:7:50016	250	
19.36	tx	C		87	:::49153	6001:db80::200:ff:fe00:7:50008	250	
19.4	tx	C		96	:::49153	6001:db80::200:ff:fe00:7:50017	250	
19.42	tx	C		88	:::49153	6001:db80::200:ff:fe00:7:50009	250	
19.46	tx	C		97	:::49153	6001:db80::200:ff:fe00:7:50018	250	
19.48	tx	C		89	:::49153	6001:db80::200:ff:fe00:7:50010	250	
19.5	tx	C		81	:::49153	6001:db80::200:ff:fe00:7:50002	250	
19.52	tx	C		98	:::49153	6001:db80::200:ff:fe00:7:50019	250	
19.54	tx	C		90	:::49153	6001:db80::200:ff:fe00:7:50011	250	
19.56	tx	C		82	:::49153	6001:db80::200:ff:fe00:7:50003	250	
19.58	tx	C		99	:::49153	6001:db80::200:ff:fe00:7:50020	250	
19.6	tx	C		91	:::49153	6001:db80::200:ff:fe00:7:50012	250	
19.62	tx	C		83	:::49153	6001:db80::200:ff:fe00:7:50004	250	
19.64	tx	C		100	:::49153	6001:db80::200:ff:fe00:7:50021	250	
19.66	tx	C		92	:::49153	6001:db80::200:ff:fe00:7:50013	250	
19.68	tx	C		84	:::49153	6001:db80::200:ff:fe00:7:50005	250	
19.72	tx	C		93	:::49153	6001:db80::200:ff:fe00:7:50014	250	
19.74	tx	C		85	:::49153	6001:db80::200:ff:fe00:7:50006	250	
19.78	tx	C		94	:::49153	6001:db80::200:ff:fe00:7:50015	250	
19.8	tx	C		86	:::49153	6001:db80::200:ff:fe00:7:50007	250	
19.84	tx	C		95	:::49153	6001:db80::200:ff:fe00:7:50016	250	
19.86	tx	C		87	:::49153	6001:db80::200:ff:fe00:7:50008	250	
19.9	tx	C		96	:::49153	6001:db80::200:ff:fe00:7:50017	250	
19.92	tx	C		88	:::49153	6001:db80::200:ff:fe00:7:50009	250	
19.96	tx	C		97	:::49153	6001:db80::200:ff:fe00:7:50018	250	
19.98	tx	C		89	:::49153	6001:db80::200:ff:fe00:7:50010	250	
20	tx	C		81	:::49153	6001:db80::200:ff:fe00:7:50002	250	
20.02	tx	C		98	:::49153	6001:db80::200:ff:fe00:7:50019	250	
20.04	tx	C		90	:::49153	6001:db80::200:ff:fe00:7:50011	250	
20.06	tx	C		82	:::49153	6001:db80::200:ff:fe00:7:50003	250	
20.08	tx	C		99	:::49153	6001:db80::200:ff:fe00:7:50020	250	
20.1	tx	C		91	:::49153	6001:db80::200:ff:fe00:7:50012	250	
20.12	tx	C		83	:::49153	6001:db80::200:ff:fe00:7:50004	250	
20.14	tx	C		100	:::49153	6001:db80::200:ff:fe00:7:50021	250	
20.16	tx	C		92	:::49153	6001:db80::200:ff:fe00:7:50013	250	
20.18	tx	C		84	:::49153	6001:db80::200:ff:fe00:7:50005	250	
20.22	tx	C		93	:::49153	6001:db80::200:ff:fe00:7:50014	250	
20.24	tx	C		85	:::49153	6001:db80::200:ff:fe00:7:50006	250	
20.28	tx	C		94	:::49153	6001:db80::200:ff:fe00:7:50015	250	
20.3	tx	C		86	:::49153	6001:db80::200:ff:fe00:7:50007	250	
20.34	tx	C		95	:::49153	6001:db80::200:ff:fe00:7:50016	250	
20.36	tx	C		87	:::49153	6001:db80::200:ff:fe00:7:50008	250	
20.4	tx	C		96	:::49153	6001:db80::200:ff:fe00:7:50017	250	
20.42	tx	C		88	:::49153	6001:db80::200:ff:fe00:7:50009	250	
20.46	tx	C		97	:::49153	6001:db80::200:ff:fe00:7:50018	250	
20.48	tx	C		89	:::49153	6001:db80::200:ff:fe00:7:50010	250	
20.5	tx	C		81	:::49153	6001:db80::200:ff:fe00:7:50002	250	
20.52	tx	C		98	:::49153	6001:db80::200:ff:fe00:7:50019	250	
20.54	tx	C		90	:::49153	6001:db80::200:ff:fe00:7:50011	250	
20.56	tx	C		82	:::49153	6001:db80::200:ff:fe00:7:50003	250	
20.58	tx	C		99	:::49153	6001:db80::200:ff:fe00:7:50020	250	
20.6	tx	C		91	:::49153	6001:db80::200:ff:fe00:7:50012	250	
20.62	tx	C		83	:::49153	6001:db80::200:ff:fe00:7:50004	250	
20.64	tx	C		100	:::49153	6001:db80::200:ff:fe00:7:50021	250	
20.66	tx	C		92	:::49153	6001:db80::200:ff:fe00:7:50013	250	
20.68	tx	C		84	:::49153	6001:db80::200:ff:fe00:7:50005	250	
20.72	tx	C		93	:::49153	6001:db80::200:ff:fe00:7:50014	250	
20.74	tx	C		85	:::49153	6001:db80::200:ff:fe00:7:50006	250	
20.78	tx	C		94	:::49153	6001:db80::200:ff:fe00:7:50015	250	
20.8	tx	C		86	:::49153	6001:db80::200:ff:fe00:7:50007	250	
20.84	tx	C		95	:::49153	6001:db80::200:ff:fe00:7:50016	250	
20.86	tx	C		87	:::49153	6001:db80::200:ff:fe00:7:50008	250	
20.9	tx	C		96	:::49153	6001:db80::200:ff:fe00:7:50017	250	
20.92	tx	C		88	:::49153	6001:db80::200:ff:fe00:7:50009	250	
20.96	tx	C		97	:::49153	6001:db80::200:ff:fe00:7:50018	250	
20.98	tx	C		89	:::49153	6001:db80::200:ff:fe00:7:50010	250	
21	tx	C		81	:::49153	6001:db80::200:ff:fe00:7:50002	250	
21.02	tx	C		98	:::49153	6001:db80::200:ff:fe00:7:50019	250	
21.04	tx	C		90	:::49153	6001:db80::200:ff:fe00:7:50011	250	
21.06	tx	C		82	:::49153	6001:db80::200:ff:fe00:7:50003	250	
21.08	tx	C		99	:::49153	6001:db80::200:ff:fe00:7:50020	250	
21.1	tx	C		91	:::49153	6001:db80::200:ff:fe00:7:50012	250	
21.12	tx	C		83	:::49153	6001:db80::200:ff:fe00:7:50004	250	
21.14	tx	C		100	:::49153	6001:db80::200:ff:fe00:7:50021	250	
21.16	tx	C		92	:::49153	6001:db80::200:ff:fe00:7:50013	250	
21.18	tx	C		84	:::49153	6001:db80::200:ff:fe00:7:50005	250	
21.22	tx	C		93	:::49153	6001:db80::200:ff:fe00:7:50014	250	
21.24	tx	C		85	:::49153	6001:db80::200:ff:fe00:7:50006	250	
21.28	tx	C		94	:::49153	6001:db80::200:ff:fe00:7:50015	250	
21.3	tx	C		86	:::49153	6001:db80::200:ff:fe00:7:50007	250	
21.34	tx	C		95	:::49153	6001:db80::200:ff:fe00:7:50016	250	
21.36	tx	C		87	:::49153	6001:db80::200:ff:fe00:7:50008	250	
21.4	tx	C		96	:::49153	6001:db80::200:ff:fe00:7:50017	250	
21.42	tx	C		88	:::49153	6001:db80::200:ff:fe00:7:50009	250	
21.46	tx	C		97	:::49153	6001:db80::200:ff:fe00:7:50018	250	
21.48	tx	C		89	:::49153	6001:db80::200:ff:fe00:7:50010	250	
21.5	tx	C		81	:::49153	6001:db80::200:ff:fe00:7:50002	250	
21.52	tx	C		98	:::49153	6001:db80::200:ff:fe00:7:50019	250	
21.54	tx	C		90	:::49153	6001:db80::200:ff:fe00:7:50011	250	
21.56	tx	C		82	:::49153	6001:db80::200:ff:fe00:7:50003	250	
21.58	tx	C		99	:::49153	6001:db80::200:ff:fe00:7:50020	250	
21.6	tx	C		91	:::49153	6001:db80::200:ff:fe00:7:50012	250	
21.62	tx	C		83	:::49153	6001:db80::200:ff:fe00:7:50004	250	
21.64	tx	C		100	:::49153	6001:db80::200:ff:fe00:7:50021	250	
21.66	tx	C		92	:::49153	6001:db80::200:ff:fe00:7:50013	250	
21.68	tx	C		84	:::49153	6001:db80::200:ff:fe00:7:50005	250	
21.72	tx	C		93	:::49153	6001:db80::200:ff:fe00:7:50014	250	
21.74	tx	C		85	:::49153	6001:db80::200:ff:fe00:7:50006	250	
21.78	tx	C		94	:::49153	6001:db80::200:ff:fe00:7:50015	250	
21.8	tx	C		86	:::49153	6001:db80::200:ff:fe00:7:50007	250	
21.84	tx	C		95	:::49153	6001:db80::200:ff:fe00:7:50016	250	
21.86	tx	C		87	:::49153	6001:db80::200:ff:fe00:7:50008	250	
21.9	tx	C		96	:::49153	6001:db80::200:ff:fe00:7:50017	250	
21.92	tx	C		88	:::49153	6001:db80::200:ff:fe00:7:50009	250	
21.96	tx	C		97	:::49153	6001:db80::200:ff:fe00:7:50018	250	
21.98	tx	C		89	:::49153	6001:db80::200:ff:fe00:7:50010	250	
22	tx	C		81	:::49153	6001:db80::200:ff:fe00:7:50002	250	
22.02	tx	C		98	:::49153	6001:db80::200:ff:fe00:7:50019	250	
22.04	tx	C		90	:::49153	6001:db80::200:ff:fe00:7:50011	250	
22.06	tx	C		82	:::49153	6001:db80::200:ff:fe00:7:50003	250	
22.08	tx	C		99	:::49153	6001:db80::200:ff:fe00:7:50020	250	
22.1	tx	C		91	:::49153	6001:db80::200:ff:fe00:7:50012	250	
22.12	tx	C		83	:::49153	6001:db80::200:ff:fe00:7:50004	250	
22.14	tx	C		100	:::49153	6001:db80::200:ff:fe00:7:50021	250	
22.16	tx	C		92	:::49153	6001:db80::200:ff:fe00:7:50013	250	
22.18	tx	C		84	:::49153	6001:db80::200:ff:fe00:7:50005	250	
22.22	tx	C		93	:::49153	6001:db80::200:ff:fe00:7:50014	250	
22.24	tx	C		85	:::49153	6001:db80::200:ff:fe00:7:50006	250	
22.28	tx	C		94	:::49153	6001:db80::200:ff:fe00:7:50015	250	
22.3	tx	C		86	:::49153	6001:db80::200:ff:fe00:7:50007	250	
22.34	tx	C		95	:::49153	6001:db80::200:ff:fe00:7:50016	250	
22.36	tx	C		87	:::49153	6001:db80::200:ff:fe00:7:50008	250	
22.4	tx	C		96	:::49153	6001:db80::200:ff:fe00:7:50017	250	
22.42	tx	C		88	:::49153	6001:db80::200:ff:fe00:7:50009	250	
22.46	tx	C		97	:::49153	6001:db80::200:ff:fe00:7:50018	250	
22.48	tx	C		89	:::49153	6001:db80::200:ff:fe00:7:50010	250	
22.5	tx	C		81	:::49153	6001:db80::200:ff:fe00:7:50002	250	
22.52	tx	C		98	:::49153	6001:db80::200:ff:fe00:7:50019	250	
22.54	tx	C		90	:::49153	6001:db80::200:ff:fe00:7:50011	250	
22.56	tx	C		82	:::49153	6001:db80::200:ff:fe00:7:50003	250	
22.58	tx	C		99	:::49153	6001:db80::200:ff:fe00:7:50020	250	
22.6	tx	C		91	:::49153	6001:db80::200:ff:fe00:7:50012	250	
22.62	tx	C		83	:::49153	6001:db80::200:ff:fe00:7:50004	250	
22.64	tx	C		100	:::49153	6001:db80::200:ff:fe00:7:50021	250	
22.66	tx	C		92	:::49153	6001:db80::200:ff:fe00:7:50013	250	
22.68	tx	C		84	:::49153	6001:db80::200:ff:fe00:7:50005	250	
22.72	tx	C		93	:::49153	6001:db80::200:ff:fe00:7:50014	250	
22.74	tx	C		85	:::49153	6001:db80::200:ff:fe00:7:50006	250	
22.78	tx	C		94	:::49153	6001:db80::200:ff:fe00:7:50015	250	
22.8	tx	C		86	:::49153	6001:db80::200:ff:fe00:7:50007	250	
22.84	tx	C		95	:::49153	6001:db80::200:ff:fe00:7:50016	250	
22.86	tx	C		87	:::49153	6001:db80::200:ff:fe00:7:50008	250	
22.9	tx	C		96	:::49153	6001:db80::200:ff:fe00:7:50017	250	
22.92	tx	C		88	:::49153	6001:db80::200:ff:fe00:7:50009	250	
22.96	tx	C		97	:::49153	6001:db80::200:ff:fe00:7:50018	250	
22.98	tx	C		89	:::49153	6001:db80::200:ff:fe00:7:50010	250	
23	tx	C		81	:::49153	6001:db80::200:ff:fe00:7:50002	250	
23.02	tx	C		98	:::49153	6001:db80::200:ff:fe00:7:50019	250	
23.04	tx	C		90	:::49153	6001:db80::200:ff:fe00:7:50011	250	
23.06	tx	C		82	:::49153	6001:db80::200:ff:fe00:7:50003	250	
23.08	tx	C		99	:::49153	6001:db80::200:ff:fe00:7:50020	250	
23.1	tx	C		91	:::49153	6001:db80::200:ff:fe00:7:50012	250	
23.12	tx	C		83	:::49153	6001:db80::200:ff:fe00:7:50004	250	
23.14	tx	C		100	:::49153	6001:db80::200:ff:fe00:7:50021	250	
23.16	tx	C		92	:::49153	6001:db80::200:ff:fe00:7:50013	250	
23.18	tx	C		84	:::49153	6001:db80::200:ff:fe00:7:50005	250	
23.22	tx	C		93	:::49153	6001:db80::200:ff:fe00:7:50014	250	
23.24	tx	C		85	:::49153	6001:db80::200:ff:fe00:7:50006	250	
23.28	tx	C		94	:::49153	6001:db80::200:ff:fe00:7:50015	250	
23.3	tx	C		86	:::49153	6001:db80::200:ff:fe00:7:50007	250	
23.34	tx	C		95	:::49153	6001:db80::200:ff:fe00:7:50016	250	
23.36	tx	C		87	:::49153	6001:db80::200:ff:fe00:7:50008	250	
23.4	tx	C		96	:::49153	6001:db80::200:ff:fe00:7:50017	250	
23.42	tx	C		88	:::49153	6001:db80::200:ff:fe00:7:50009	250	
23.46	tx	C		97	:::49153	6001:db80::200:ff:fe00:7:50018	250	
23.48	tx	C		89	:::49153	6001:db80::200:ff:fe00:7:50010	250	
23.5	tx	C		81	:::49153	6001:db80::200:ff:fe00:7:50002	250	
23.52	tx	C		98	:::49153	6001:db80::200:ff:fe00:7:50019	250	
23.54	tx	C		90	:::49153	6001:db80::200:ff:fe00:7:50011	250	
23.56	tx	C		82	:::49153	6001:db80::200:ff:fe00:7:50003	250	
23.58	tx	C		99	:::49153	6001:db80::200:ff:fe00:7:50020	250	
23.6	tx	C		91	:::49153	6001:db80::200:ff:fe00:7:50012	250	
23.62	tx	C		83	:::49153	6001:db80::200:ff:fe00:7:50004	250	
23.64	tx	C		100	:::49153	6001:db80::200:ff:fe00:7:50021	250	
23.66	tx	C		92	:::49153	6001:db80::200:ff:fe00:7:50013	250	
23.68	tx	C		84	:::49153	6001:db80::200:ff:fe00:7:50005	250	
23.72	tx	C		93	:::49153	6001:db80::200:ff:fe00:7:50014	250	
23.74	tx	C		85	:::49153	6001:db80::200:ff:fe00:7:50006	250	
23.78	tx	C		94	:::49153	6001:db80::200:ff:fe00:7:50015	250	
23.8	tx	C		86	:::49153	6001:db80::200:ff:fe00:7:50007	250	
23.84	tx	C		95	:::49153	6001:db80::200:ff:fe00:7:50016	250	
23.86	tx	C		87	:::49153	6001:db80::200:ff:fe00:7:50008	250	
23.9	tx	C		96	:::49153	6001:db80::200:ff:fe00:7:50017	250	
23.92	tx	C		88	:::49153	6001:db80::200:ff:fe00:7:50009	250	
23.96	tx	C		97	:::49153	6001:db80::200:ff:fe00:7:50018	250	
23.98	tx	C		89	:::49153	6001:db80::200:ff:fe00:7:50010	250	
24	tx	C		81	:::49153	6001:db80::200:ff:fe00:7:50002	250	
24.02	tx	C		98	:::49153	6001:db80::200:ff:fe00:7:50019	250	
24.04	tx	C		90	:::49153	6001:db80::200:ff:fe00:7:50011	250	
24.06	tx	C		82	:::49153	6001:db80::200:ff:fe00:7:50003	250	
24.08	tx	C		99	:::49153	6001:db80::200:ff:fe00:7:50020	250	
24.1	tx	C		91	:::49153	6001:db80::200:ff:fe00:7:50012	250	
24.12	tx	C		83	:::49153	6001:db80::200:ff:fe00:7:50004	250	
24.14	tx	C		100	:::49153	6001:db80::200:ff:fe00:7:50021	250	
24.16	tx	C		92	:::49153	6001:db80::200:ff:fe00:7:50013	250	
24.18	tx	C		84	:::49153	6001:db80::200:ff:fe00:7:50005	250	
24.22	tx	C		93	:::49153	6001:db80::200:ff:fe00:7:50014	250	
24.24	tx	C		85	:::49153	6001:db80::200:ff:fe00:7:50006	250	
24.28	tx	C		94	:::49153	6001:db80::200:ff:fe00:7:50015	250	
24.3	tx	C		86	:::49153	6001:db80::200:ff:fe00:7:50007	250	
24.34	tx	C		95	:::49153	6001:db80::200:ff:fe00:7:50016	250	
24.36	tx	C		87	:::49153	6001:db80::200:ff:fe00:7:50008	250	
24.4	tx	C		96	:::49153	6001:db80::200:ff:fe00:7:50017	250	
24.42	tx	C		88	:::49153	6001:db80::200:ff:fe00:7:50009	250	
24.46	tx	C		97	:::49153	6001:db80::200:ff:fe00:7:50018	250	
24.48	tx	C		89	:::49153	6001:db80::200:ff:fe00:7:50010	250	
24.5	tx	C		81	:::49153	6001:db80::200:ff:fe00:7:50002	250	
24.52	tx	C		98	:::49153	6001:db80::200:ff:fe00:7:50019	250	
24.54	tx	C		90	:::49153	6001:db80::200:ff:fe00:7:50011	250	
24.56	tx	C		82	:::49153	6001:db80::200:ff:fe00:7:50003	250	
24.58	tx	C		99	:::49153	6001:db80::200:ff:fe00:7:50020	250	
24.6	tx	C		91	:::49153	6001:db80::200:ff:fe00:7:50012	250	
24.62	tx	C		83	:::49153	6001:db80::200:ff:fe00:7:50004	250	
24.64	tx	C		100	:::49153	6001:db80::200:ff:fe00:7:50021	250	
24.66	tx	C		92	:::49153	6001:db80::200:ff:fe00:7:50013	250	
24.68	tx	C		84	:::49153	6001:db80::200:ff:fe00:7:50005	250	
24.72	tx	C		93	:::49153	6001:db80::200:ff:fe00:7:50014	250	
24.74	tx	C		85	:::49153	6001:db80::200:ff:fe00:7:50006	250	
24.78	tx	C		94	:::49153	6001:db80::200:ff:fe00:7:50015	250	
24.8	tx	C		86	:::49153	6001:db80::200:ff:fe00:7:50007	250	
24.84	tx	C		95	:::49153	6001:db80::200:ff:fe00:7:50016	250	
24.86	tx	C		87	:::49153	6001:db80::200:ff:fe00:7:50008	250	
24.9	tx	C		96	:::49153	6001:db80::200:ff:fe00:7:50017	250	
24.92	tx	C		88	:::49153	6001:db80::200:ff:fe00:7:50009	250	
24.96	tx	C		97	:::49153	6001:db80::200:ff:fe00:7:50018	250	
24.98	tx	C		89	:::49153	6001:db80::200:ff:fe00:7:50010	250	
25	tx	C		81	:::49153	6001:db80::200:ff:fe00:7:50002	250	
25.02	tx	C		98	:::49153	6001:db80::200:ff:fe00:7:50019	250	
25.04	tx	C		90	:::49153	6001:db80::200:ff:fe00:7:50011	250	
25.06	tx	C		82	:::49153	6001:db80::200:ff:fe00:7:50003	250	
25.08	tx	C		99	:::49153	6001:db80::200:ff:fe00:7:50020	250	
25.1	tx	C		91	:::49153	6001:db80::200:ff:fe00:7:50012	250	
25.12	tx	C		83	:::49153	6001:db80::200:ff:fe00:7:50004	250	
25.14	tx	C		100	:::49153	6001:db80::200:ff:fe00:7:50021	250	
25.16	tx	C		92	:::49153	6001:db80::200:ff:fe00:7:50013	250	
25.18	tx	C		84	:::49153	6001:db80::200:ff:fe00:7:50005	250	
25.22	tx	C		93	:::49153	6001:db80::200:ff:fe00:7:50014	250	
25.24	tx	C		85	:::49153	6001:db80::200:ff:fe00:7:50006	250	
25.28	tx	C		94	:::49153	6001:db80::200:ff:fe00:7:50015	250	
25.3	tx	C		86	:::49153	6001:db80::200:ff:fe00:7:50007	250	
25.34	tx	C		95	:::49153	6001:db80::200:ff:fe00:7:50016	250	
25.36	tx	C		87	:::49153	6001:db80::200:ff:fe00:7:50008	250	
25.4	tx	C		96	:::49153	6001:db80::200:ff:fe00:7:50017	250	
25.42	tx	C		88	:::49153	6001:db80::200:ff:fe00:7:50009	250	
25.46	tx	C		97	:::49153	6001:db80::200:ff:fe00:7:50018	250	
25.48	tx	C		89	:::49153	6001:db80::200:ff:fe00:7:50010	250	
25.5	tx	C		81	:::49153	6001:db80::200:ff:fe00:7:50002	250	
25.52	tx	C		98	:::49153	6001:db80::200:ff:fe00:7:50019	250	
25.54	tx	C		90	:::49153	6001:db80::200:ff:fe00:7:50011	250	
25.56	tx	C		82	:::49153	6001:db80::200:ff:fe00:7:50003	250	
25.58	tx	C		99	:::49153	6001:db80::200:ff:fe00:7:50020	250	
25.6	tx	C		91	:::49153	6001:db80::200:ff:fe00:7:50012	250	
25.62	tx	C		83	:::49153	6001:db80::200:ff:fe00:7:50004	250	
25.64	tx	C		100	:::49153	6001:db80::200:ff:fe00:7:50021	250	
25.66	tx	C		92	:::49153	6001:db80::200:ff:fe00:7:50013	250	
25.68	tx	C		84	:::49153	6001:db80::200:ff:fe00:7:50005	250	
25.72	tx	C		93	:::49153	6001:db80::200:ff:fe00:7:50014	250	
25.74	tx	C		85	:::49153	6001:db80::200:ff:fe00:7:50006	250	
25.78	tx	C		94	:::49153	6001:db80::200:ff:fe00:7:50015	250	
25.8	tx	C		86	:::49153	6001:db80::200:ff:fe00:7:50007	250	
25.84	tx	C		95	:::49153	6001:db80::200:ff:fe00:7:50016	250	
25.86	tx	C		87	:::49153	6001:db80::200:ff:fe00:7:50008	250	
25.9	tx	C		96	:::49153	6001:db80::200:ff:fe00:7:50017	250	
25.92	tx	C		88	:::49153	6001:db80::200:ff:fe00:7:50009	250	
25.96	tx	C		97	:::49153	6001:db80::200:ff:fe00:7:50018	250	
25.98	tx	C		89	:::49153	6001:db80::200:ff:fe00:7:50010	250	
26	tx	C		81	:::49153	6001:db80::200:ff:fe00:7:50002	250	
26.02	tx	C		98	:::49153	6001:db80::200:ff:fe00:7:50019	250	
26.04	tx	C		90	:::49153	6001:db80::200:ff:fe00:7:50011	250	
26.06	tx	C		82	:::49153	6001:db80::200:ff:fe00:7:50003	250	
26.08	tx	C		99	:::49153	6001:db80::200:ff:fe00:7:50020	250	
26.1	tx	C		91	:::49153	6001:db80::200:ff:fe00:7:50012	250	
26.12	tx	C		83	:::49153	6001:db80::200:ff:fe00:7:50004	250	
26.14	tx	C		100	:::49153	6001:db80::200:ff:fe00:7:50021	250	
26.16	tx	C		92	:::49153	6001:db80::200:ff:fe00:7:50013	250	
26.18	tx	C		84	:::49153	6001:db80::200:ff:fe00:7:50005	250	
26.22	tx	C		93	:::49153	6001:db80::200:ff:fe00:7:50014	250	
26.24	tx	C		85	:::49153	6001:db80::200:ff:fe00:7:50006	250	
26.28	tx	C		94	:::49153	6001:db80::200:ff:fe00:7:50015	250	
26.3	tx	C		86	:::49153	6001:db80::200:ff:fe00:7:50007	250	
26.34	tx	C		95	:::49153	6001:db80::200:ff:fe00:7:50016	250	
26.36	tx	C		87	:::49153	6001:db80::200:ff:fe00:7:50008	250	
26.4	tx	C		96	:::49153	6001:db80::200:ff:fe00:7:50017	250	
26.42	tx	C		88	:::49153	6001:db80::200:ff:fe00:7:50009	250	
26.46	tx	C		97	:::49153	6001:db80::200:ff:fe00:7:50018	250	
26.48	tx	C		89	:::49153	6001:db80::200:ff:fe00:7:50010	250	
26.5	tx	C		81	:::49153	6001:db80::200:ff:fe00:7:50002	250	
26.52	tx	C		98	:::49153	6001:db80::200:ff:fe00:7:50019	250	
26.54	tx	C		90	:::49153	6001:db80::200:ff:fe00:7:50011	250	
26.56	tx	C		82	:::49153	6001:db80::200:ff:fe00:7:50003	250	
26.58	tx	C		99	:::49153	6001:db80::200:ff:fe00:7:50020	250	
26.6	tx	C		91	:::49153	6001:db80::200:ff:fe00:7:50012	250	
26.62	tx	C		83	:::49153	6001:db80::200:ff:fe00:7:50004	250	
26.64	tx	C		100	:::49153	6001:db80::200:ff:fe00:7:50021	250	
26.66	tx	C		92	:::49153	6001:db80::200:ff:fe00:7:50013	250	
26.68	tx	C		84	:::49153	6001:db80::200:ff:fe00:7:50005	250	
26.72	tx	C		93	:::49153	6001:db80::200:ff:fe00:7:50014	250	
26.74	tx	C		85	:::49153	6001:db80::200:ff:fe00:7:50006	250	
26.78	tx	C		94	:::49153	6001:db80::200:ff:fe00:7:50015	250	
26.8	tx	C		86	:::49153	6001:db80::200:ff:fe00:7:50007	250	
26.84	tx	C		95	:::49153	6001:db80::200:ff:fe00:7:50016	250	
26.86	tx	C		87	:::49153	6001:db80::200:ff:fe00:7:50008	250	
26.9	tx	C		96	:::49153	6001:db80::200:ff:fe00:7:50017	250	
26.92	tx	C		88	:::49153	6001:db80::200:ff:fe00:7:50009	250	
26.96	tx	C		97	:::49153	6001:db80::200:ff:fe00:7:50018	250	
26.98	tx	C		89	:::49153	6001:db80::200:ff:fe00:7:50010	250	
27	tx	C		81	:::49153	6001:db80::200:ff:fe00:7:50002	250	
27.02	tx	C		98	:::49153	6001:db80::200:ff:fe00:7:50019	250	
27.04	tx	C		90	:::49153	6001:db80::200:ff:fe00:7:50011	250	
27.06	tx	C		82	:::49153	6001:db80::200:ff:fe00:7:50003	250	
27.08	tx	C		99	:::49153	6001:db80::200:ff:fe00:7:50020	250	
27.1	tx	C		91	:::49153	6001:db80::200:ff:fe00:7:50012	250	
27.12	tx	C		83	:::49153	6001:db80::200:ff:fe00:7:50004	250	
27.14	tx	C		100	:::49153	6001:db80::200:ff:fe00:7:50021	250	
27.16	tx	C		92	:::49153	6001:db80::200:ff:fe00:7:50013	250	
27.18	tx	C		84	:::49153	6001:db80::200:ff:fe00:7:50005	250	
27.22	tx	C		93	:::49153	6001:db80::200:ff:fe00:7:50014	250	
27.24	tx	C		85	:::49153	6001:db80::200:ff:fe00:7:50006	250	
27.28	tx	C		94	:::49153	6001:db80::200:ff:fe00:7:50015	250	
27.3	tx	C		86	:::49153	6001:db80::200:ff:fe00:7:50007	250	
27.34	tx	C		95	:::49153	6001:db80::200:ff:fe00:7:50016	250	
27.36	tx	C		87	:::49153	6001:db80::200:ff:fe00:7:50008	250	
27.4	tx	C		96	:::49153	6001:db80::200:ff:fe00:7:50017	250	
27.42	tx	C		88	:::49153	6001:db80::200:ff:fe00:7:50009	250	
27.46	tx	C		97	:::49153	6001:db80::200:ff:fe00:7:50018	250	
27.48	tx	C		89	:::49153	6001:db80::200:ff:fe00:7:50010	250	
27.5	tx	C		81	:::49153	6001:db80::200:ff:fe00:7:50002	250	
27.52	tx	C		98	:::49153	6001:db80::200:ff:fe00:7:50019	250	
27.54	tx	C		90	:::49153	6001:db80::200:ff:fe00:7:50011	250	
27.56	tx	C		82	:::49153	6001:db80::200:ff:fe00:7:50003	250	
27.58	tx	C		99	:::49153	6001:db80::200:ff:fe00:7:50020	250	
27.6	tx	C		91	:::49153	6001:db80::200:ff:fe00:7:50012	250	
27.62	tx	C		83	:::49153	6001:db80::200:ff:fe00:7:50004	250	
27.64	tx	C		100	:::49153	6001:db80::200:ff:fe00:7:50021	250	
27.66	tx	C		92	:::49153	6001:db80::200:ff:fe00:7:50013	250	
27.68	tx	C		84	:::49153	6001:db80::200:ff:fe00:7:50005	250	
27.72	tx	C		93	:::49153	6001:db80::200:ff:fe00:7:50014	250	
27.74	tx	C		85	:::49153	6001:db80::200:ff:fe00:7:50006	250	
27.78	tx	C		94	:::49153	6001:db80::200:ff:fe00:7:50015	250	
27.8	tx	C		86	:::49153	6001:db80::200:ff:fe00:7:50007	250	
27.84	tx	C		95	:::49153	6001:db80::200:ff:fe00:7:50016	250	
27.86	tx	C		87	:::49153	6001:db80::200:ff:fe00:7:50008	250	
27.9	tx	C		96	:::49153	6001:db80::200:ff:fe00:7:50017	250	
27.92	tx	C		88	:::49153	6001:db80::200:ff:fe00:7:50009	250	
27.96	tx	C		97	:::49153	6001:db80::200:ff:fe00:7:50018	250	
27.98	tx	C		89	:::49153	6001:db80::200:ff:fe00:7:50010	250	
28	tx	C		81	:::49153	6001:db80::200:ff:fe00:7:50002	250	
28.02	tx	C		98	:::49153	6001:db80::200:ff:fe00:7:50019	250	
28.04	tx	C		90	:::49153	6001:db80::200:ff:fe00:7:50011	250	
28.06	tx	C		82	:::49153	6001:db80::200:ff:fe00:7:50003	250	
28.08	tx	C		99	:::49153	6001:db80::200:ff:fe00:7:50020	250	
28.1	tx	C		91	:::49153	6001:db80::200:ff:fe00:7:50012	250	
28.12	tx	C		83	:::49153	6001:db80::200:ff:fe00:7:50004	250	
28.14	tx	C		100	:::49153	6001:db80::200:ff:fe00:7:50021	250	
28.16	tx	C		92	:::49153	6001:db80::200:ff:fe00:7:50013	250	
28.18	tx	C		84	:::49153	6001:db80::200:ff:fe00:7:50005	250	
28.22	tx	C		93	:::49153	6001:db80::200:ff:fe00:7:50014	250	
28.24	tx	C		85	:::49153	6001:db80::200:ff:fe00:7:50006	250	
28.28	tx	C		94	:::49153	6001:db80::200:ff:fe00:7:50015	250	
28.3	tx	C		86	:::49153	6001:db80::200:ff:fe00:7:50007	250	
28.34	tx	C		95	:::49153	6001:db80::200:ff:fe00:7:50016	250	
28.36	tx	C		87	:::49153	6001:db80::200:ff:fe00:7:50008	250	
28.4	tx	C		96	:::49153	6001:db80::200:ff:fe00:7:50017	250	
28.42	tx	C		88	:::49153	6001:db80::200:ff:fe00:7:50009	250	
28.46	tx	C		97	:::49153	6001:db80::200:ff:fe00:7:50018	250	
28.48	tx	C		89	:::49153	6001:db80::200:ff:fe00:7:50010	250	
28.5	tx	C		81	:::49153	6001:db80::200:ff:fe00:7:50002	250	
28.52	tx	C		98	:::49153	6001:db80::200:ff:fe00:7:50019	250	
28.54	tx	C		90	:::49153	6001:db80::200:ff:fe00:7:50011	250	
28.56	tx	C		82	:::49153	6001:db80::200:ff:fe00:7:50003	250	
28.58	tx	C		99	:::49153	6001:db80::200:ff:fe00:7:50020	250	
28.6	tx	C		91	:::49153	6001:db80::200:ff:fe00:7:50012	250	
28.62	tx	C		83	:::49153	6001:db80::200:ff:fe00:7:50004	250	
28.64	tx	C		100	:::49153	6001:db80::200:ff:fe00:7:50021	250	
28.66	tx	C		92	:::49153	6001:db80::200:ff:fe00:7:50013	250	
28.68	tx	C		84	:::49153	6001:db80::200:ff:fe00:7:50005	250	
28.72	tx	C		93	:::49153	6001:db80::200:ff:fe00:7:50014	250	
28.74	tx	C		85	:::49153	6001:db80::200:ff:fe00:7:50006	250	
28.78	tx	C		94	:::49153	6001:db80::200:ff:fe00:7:50015	250	
28.8	tx	C		86	:::49153	6001:db80::200:ff:fe00:7:50007	250	
28.84	tx	C		95	:::49153	6001:db80::200:ff:fe00:7:50016	250	
28.86	tx	C		87	:::49153	6001:db80::200:ff:fe00:7:50008	250	
28.9	tx	C		96	:::49153	6001:db80::200:ff:fe00:7:50017	250	
28.92	tx	C		88	:::49153	6001:db80::200:ff:fe00:7:50009	250	
28.96	tx	C		97	:::49153	6001:db80::200:ff:fe00:7:50018	250	
28.98	tx	C		89	:::49153	6001:db80::200:ff:fe00:7:50010	250	
29	tx	C		81	:::49153	6001:db80::200:ff:fe00:7:50002	250	
29.02	tx	C		98	:::49153	6001:db80::200:ff:fe00:7:50019	250	
29.04	tx	C		90	:::49153	6001:db80::200:ff:fe00:7:50011	250	
29.06	tx	C		82	:::49153	6001:db80::200:ff:fe00:7:50003	250	
29.08	tx	C		99	:::49153	6001:db80::200:ff:fe00:7:50020	250	
29.1	tx	C		91	:::49153	6001:db80::200:ff:fe00:7:50012	250	
29.12	tx	C		83	:::49153	6001:db80::200:ff:fe00:7:50004	250	
29.14	tx	C		100	:::49153	6001:db80::200:ff:fe00:7:50021	250	
29.16	tx	C		92	:::49153	6001:db80::200:ff:fe00:7:50013	250	
29.18	tx	C		84	:::49153	6001:db80::200:ff:fe00:7:50005	250	
29.22	tx	C		93	:::49153	6001:db80::200:ff:fe00:7:50014	250	
29.24	tx	C		85	:::49153	6001:db80::200:ff:fe00:7:50006	250	
29.28	tx	C		94	:::49153	6001:db80::200:ff:fe00:7:50015	250	
29.3	tx	C		86	:::49153	6001:db80::200:ff:fe00:7:50007	250	
29.34	tx	C		95	:::49153	6001:db80::200:ff:fe00:7:50016	250	
29.36	tx	C		87	:::49153	6001:db80::200:ff:fe00:7:50008	250	
29.4	tx	C		96	:::49153	6001:db80::200:ff:fe00:7:50017	250	
29.42	tx	C		88	:::49153	6001:db80::200:ff:fe00:7:50009	250	
29.46	tx	C		97	:::49153	6001:db80::200:ff:fe00:7:50018	250	
29.48	tx	C		89	:::49153	6001:db80::200:ff:fe00:7:50010	250	
29.5	tx	C		81	:::49153	6001:db80::200:ff:fe00:7:50002	250	
29.52	tx	C		98	:::49153	6001:db80::200:ff:fe00:7:50019	250	
29.54	tx	C		90	:::49153	6001:db80::200:ff:fe00:7:50011	250	
29.56	tx	C		82	:::49153	6001:db80::200:ff:fe00:7:50003	250	
29.58	tx	C		99	:::49153	6001:db80::200:ff:fe00:7:50020	250	
29.6	tx	C		91	:::49153	6001:db80::200:ff:fe00:7:50012	250	
29.62	tx	C		83	:::49153	6001:db80::200:ff:fe00:7:50004	250	
29.64	tx	C		100	:::49153	6001:db80::200:ff:fe00:7:50021	250	
29.66	tx	C		92	:::49153	6001:db80::200:ff:fe00:7:50013	250	
29.68	tx	C		84	:::49153	6001:db80::200:ff:fe00:7:50005	250	
29.72	tx	C		93	:::49153	6001:db80::200:ff:fe00:7:50014	250	
29.74	tx	C		85	:::49153	6001:db80::200:ff:fe00:7:50006	250	
29.78	tx	C		94	:::49153	6001:db80::200:ff:fe00:7:50015	250	
29.8	tx	C		86	:::49153	6001:db80::200:ff:fe00:7:50007	250	
29.84	tx	C		95	:::49153	6001:db80::200:ff:fe00:7:50016	250	
29.86	tx	C		87	:::49153	6001:db80::200:ff:fe00:7:50008	250	
29.9	tx	C		96	:::49153	6001:db80::200:ff:fe00:7:50017	250	
29.92	tx	C		88	:::49153	6001:db80::200:ff:fe00:7:50009	250	
29.96	tx	C		97	:::49153	6001:db80::200:ff:fe00:7:50018	250	
29.98	tx	C		89	:::49153	6001:db80::200:ff:fe00:7:50010	250	
30	tx	C		81	:::49153	6001:db80::200:ff:fe00:7:50002	250	
30.02	tx	C		98	:::49153	6001:db80::200:ff:fe00:7:50019	250	
30.04	tx	C		90	:::49153	6001:db80::200:ff:fe00:7:50011	250	
30.06	tx	C		82	:::49153	6001:db80::200:ff:fe00:7:50003	250	
30.08	tx	C		99	:::49153	6001:db80::200:ff:fe00:7:50020	250	
30.1	tx	C		91	:::49153	6001:db80::200:ff:fe00:7:50012	250	
30.12	tx	C		83	:::49153	6001:db80::200:ff:fe00:7:50004	250	
30.14	tx	C		100	:::49153	6001:db80::200:ff:fe00:7:50021	250	
30.16	tx	C		92	:::49153	6001:db80::200:ff:fe00:7:50013	250	
30.18	tx	C		84	:::49153	6001:db80::200:ff:fe00:7:50005	250	
30.22	tx	C		93	:::49153	6001:db80::200:ff:fe00:7:50014	250	
30.24	tx	C		85	:::49153	6001:db80::200:ff:fe00:7:50006	250	
30.28	tx	C		94	:::49153	6001:db80::200:ff:fe00:7:50015	250	
30.3	tx	C		86	:::49153	6001:db80::200:ff:fe00:7:50007	250	
30.34	tx	C		95	:::49153	6001:db80::200:ff:fe00:7:50016	250	
30.36	tx	C		87	:::49153	6001:db80::200:ff:fe00:7:50008	250	
30.4	tx	C		96	:::49153	6001:db80::200:ff:fe00:7:50017	250	
30.42	tx	C		88	:::49153	6001:db80::200:ff:fe00:7:50009	250	
30.46	tx	C		97	:::49153	6001:db80::200:ff:fe00:7:50018	250	
30.48	tx	C		89	:::49153	6001:db80::200:ff:fe00:7:50010	250	
30.5	tx	C		81	:::49153	6001:db80::200:ff:fe00:7:50002	250	
30.52	tx	C		98	:::49153	6001:db80::200:ff:fe00:7:50019	250	
30.54	tx	C		90	:::49153	6001:db80::200:ff:fe00:7:50011	250	
30.56	tx	C		82	:::49153	6001:db80::200:ff:fe00:7:50003	250	
30.58	tx	C		99	:::49153	6001:db80::200:ff:fe00:7:50020	250	
30.6	tx	C		91	:::49153	6001:db80::200:ff:fe00:7:50012	250	
30.62	tx	C		83	:::49153	6001:db80::200:ff:fe00:7:50004	250	
30.64	tx	C		100	:::49153	6001:db80::200:ff:fe00:7:50021	250	
30.66	tx	C		92	:::49153	6001:db80::200:ff:fe00:7:50013	250	
30.68	tx	C		84	:::49153	6001:db80::200:ff:fe00:7:50005	250	
30.72	tx	C		93	:::49153	6001:db80::200:ff:fe00:7:50014	250	
30.74	tx	C		85	:::49153	6001:db80::200:ff:fe00:7:50006	250	
30.78	tx	C		94	:::49153	6001:db80::200:ff:fe00:7:50015	250	
30.8	tx	C		86	:::49153	6001:db80::200:ff:fe00:7:50007	250	
30.84	tx	C		95	:::49153	6001:db80::200:ff:fe00:7:50016	250	
30.86	tx	C		87	:::49153	6001:db80::200:ff:fe00:7:50008	250	
30.9	tx	C		96	:::49153	6001:db80::200:ff:fe00:7:50017	250	
30.92	tx	C		88	:::49153	6001:db80::200:ff:fe00:7:50009	250	
30.96	tx	C		97	:::49153	6001:db80::200:ff:fe00:7:50018	250	
30.98	tx	C		89	:::49153	6001:db80::200:ff:fe00:7:50010	250	
31	tx	C		81	:::49153	6001:db80::200:ff:fe00:7:50002	250	
31.02	tx	C		98	:::49153	6001:db80::200:ff:fe00:7:50019	250	
31.04	tx	C		90	:::49153	6001:db80::200:ff:fe00:7:50011	250	
31.06	tx	C		82	:::49153	6001:db80::200:ff:fe00:7:50003	250	
31.08	tx	C		99	:::49153	6001:db80::200:ff:fe00:7:50020	250	
31.1	tx	C		91	:::49153	6001:db80::200:ff:fe00:7:50012	250	
31.12	tx	C		83	:::49153	6001:db80::200:ff:fe00:7:50004	250	
31.14	tx	C		100	:::49153	6001:db80::200:ff:fe00:7:50021	250	
31.16	tx	C		92	:::49153	6001:db80::200:ff:fe00:7:50013	250	
31.18	tx	C		84	:::49153	6001:db80::200:ff:fe00:7:50005	250	
31.22	tx	C		93	:::49153	6001:db80::200:ff:fe00:7:50014	250	
31.24	tx	C		85	:::49153	6001:db80::200:ff:fe00:7:50006	250	
31.28	tx	C		94	:::49153	6001:db80::200:ff:fe00:7:50015	250	
31.3	tx	C		86	:::49153	6001:db80::200:ff:fe00:7:50007	250	
31.34	tx	C		95	:::49153	6001:db80::200:ff:fe00:7:50016	250	
31.36	tx	C		87	:::49153	6001:db80::200:ff:fe00:7:50008	250	
31.4	tx	C		96	:::49153	6001:db80::200:ff:fe00:7:50017	250	
31.42	tx	C		88	:::49153	6001:db80::200:ff:fe00:7:50009	250	
31.46	tx	C		97	:::49153	6001:db80::200:ff:fe00:7:50018	250	
31.48	tx	C		89	:::49153	6001:db80::200:ff:fe00:7:50010	250	
31.5	tx	C		81	:::49153	6001:db80::200:ff:fe00:7:50002	250	
31.52	tx	C		98	:::49153	6001:db80::200:ff:fe00:7:50019	250	
31.54	tx	C		90	:::49153	6001:db80::200:ff:fe00:7:50011	250	
31.56	tx	C		82	:::49153	6001:db80::200:ff:fe00:7:50003	250	
31.58	tx	C		99	:::49153	6001:db80::200:ff:fe00:7:50020	250	
31.6	tx	C		91	:::49153	6001:db80::200:ff:fe00:7:50012	250	
31.62	tx	C		83	:::49153	6001:db80::200:ff:fe00:7:50004	250	
31.64	tx	C		100	:::49153	6001:db80::200:ff:fe00:7:50021	250	
31.66	tx	C		92	:::49153	6001:db80::200:ff:fe00:7:50013	250	
31.68	tx	C		84	:::49153	6001:db80::200:ff:fe00:7:50005	250	
31.72	tx	C		93	:::49153	6001:db80::200:ff:fe00:7:50014	250	
31.74	tx	C		85	:::49153	6001:db80::200:ff:fe00:7:50006	250	
31.78	tx	C		94	:::49153	6001:db80::200:ff:fe00:7:50015	250	
31.8	tx	C		86	:::49153	6001:db80::200:ff:fe00:7:50007	250	
31.84	tx	C		95	:::49153	6001:db80::200:ff:fe00:7:50016	250	
31.86	tx	C		87	:::49153	6001:db80::200:ff:fe00:7:50008	250	
31.9	tx	C		96	:::49153	6001:db80::200:ff:fe00:7:50017	250	
31.92	tx	C		88	:::49153	6001:db80::200:ff:fe00:7:50009	250	
31.96	tx	C		97	:::49153	6001:db80::200:ff:fe00:7:50018	250	
31.98	tx	C		89	:::49153	6001:db80::200:ff:fe00:7:50010	250	
32	tx	C		81	:::49153	6001:db80::200:ff:fe00:7:50002	250	
32.02	tx	C		98	:::49153	6001:db80::200:ff:fe00:7:50019	250	
32.04	tx	C		90	:::49153	6001:db80::200:ff:fe00:7:50011	250	
32.06	tx	C		82	:::49153	6001:db80::200:ff:fe00:7:50003	250	
32.08	tx	C		99	:::49153	6001:db80::200:ff:fe00:7:50020	250	
32.1	tx	C		91	:::49153	6001:db80::200:ff:fe00:7:50012	250	
32.12	tx	C		83	:::49153	6001:db80::200:ff:fe00:7:50004	250	
32.14	tx	C		100	:::49153	6001:db80::200:ff:fe00:7:50021	250	
32.16	tx	C		92	:::49153	6001:db80::200:ff:fe00:7:50013	250	
32.18	tx	C		84	:::49153	6001:db80::200:ff:fe00:7:50005	250	
32.22	tx	C		93	:::49153	6001:db80::200:ff:fe00:7:50014	250	
32.24	tx	C		85	:::49153	6001:db80::200:ff:fe00:7:50006	250	
32.28	tx	C		94	:::49153	6001:db80::200:ff:fe00:7:50015	250	
32.3	tx	C		86	:::49153	6001:db80::200:ff:fe00:7:50007	250	
32.34	tx	C		95	:::49153	6001:db80::200:ff:fe00:7:50016	250	
32.36	tx	C		87	:::49153	6001:db80::200:ff:fe00:7:50008	250	
32.4	tx	C		96	:::49153	6001:db80::200:ff:fe00:7:50017	250	
32.42	tx	C		88	:::49153	6001:db80::200:ff:fe00:7:50009	250	
32.46	tx	C		97	:::49153	6001:db80::200:ff:fe00:7:50018	250	
32.48	tx	C		89	:::49153	6001:db80::200:ff:fe00:7:50010	250	
32.5	tx	C		81	:::49153	6001:db80::200:ff:fe00:7:50002	250	
32.52	tx	C		98	:::49153	6001:db80::200:ff:fe00:7:50019	250	
32.54	tx	C		90	:::49153	6001:db80::200:ff:fe00:7:50011	250	
32.56	tx	C		82	:::49153	6001:db80::200:ff:fe00:7:50003	250	
32.58	tx	C		99	:::49153	6001:db80::200:ff:fe00:7:50020	250	
32.6	tx	C		91	:::49153	6001:db80::200:ff:fe00:7:50012	250	
32.62	tx	C		83	:::49153	6001:db80::200:ff:fe00:7:50004	250	
32.64	tx	C		100	:::49153	6001:db80::200:ff:fe00:7:50021	250	
32.66	tx	C		92	:::49153	6001:db80::200:ff:fe00:7:50013	250	
32.68	tx	C		84	:::49153	6001:db80::200:ff:fe00:7:50005	250	
32.72	tx	C		93	:::49153	6001:db80::200:ff:fe00:7:50014	250	
32.74	tx	C		85	:::49153	6001:db80::200:ff:fe00:7:50006	250	
32.78	tx	C		94	:::49153	6001:db80::200:ff:fe00:7:50015	250	
32.8	tx	C		86	:::49153	6001:db80::200:ff:fe00:7:50007	250	
32.84	tx	C		95	:::49153	6001:db80::200:ff:fe00:7:50016	250	
32.86	tx	C		87	:::49153	6001:db80::200:ff:fe00:7:50008	250	
32.9	tx	C		96	:::49153	6001:db80::200:ff:fe00:7:50017	250	
32.92	tx	C		88	:::49153	6001:db80::200:ff:fe00:7:50009	250	
32.96	tx	C		97	:::49153	6001:db80::200:ff:fe00:7:50018	250	
32.98	tx	C		89	:::49153	6001:db80::200:ff:fe00:7:50010	250	
33.02	tx	C		98	:::49153	6001:db80::200:ff:fe00:7:50019	250	
33.04	tx	C		90	:::49153	6001:db80::200:ff:fe00:7:50011	250	
33.08	tx	C		99	:::49153	6001:db80::200:ff:fe00:7:50020	250	
33.1	tx	C		91	:::49153	6001:db80::200:ff:fe00:7:50012	250	
33.14	tx	C		100	:::49153	6001:db80::200:ff:fe00:7:50021	250	
33.16	tx	C		92	:::49153	6001:db80::200:ff:fe00:7:50013	250	
33.22	tx	C		93	:::49153	6001:db80::200:ff:fe00:7:50014	250	
33.28	tx	C		94	:::49153	6001:db80::200:ff:fe00:7:50015	250	
33.34	tx	C		95	:::49153	6001:db80::200:ff:fe00:7:50016	250	
33.4	tx	C		96	:::49153	6001:db80::200:ff:fe00:7:50017	250	
33.42	tx	C		88	:::49153	6001:db80::200:ff:fe00:7:50009	250	
33.46	tx	C		97	:::49153	6001:db80::200:ff:fe00:7:50018	250	
33.52	tx	C		98	:::49153	6001:db80::200:ff:fe00:7:50019	250	
33.58	tx	C		99	:::49153	6001:db80::200:ff:fe00:7:50020	250	
33.64	tx	C		100	:::49153	6001:db80::200:ff:fe00:7:50021	250	
33.84	tx	C		95	:::49153	6001:db80::200:ff:fe00:7:50016	250	
33.96	tx	C		97	:::49153	6001:db80::200:ff:fe00:7:50018	250	
34.14	tx	C		100	:::49153	6001:db80::200:ff:fe00:7:50021	250	
