3	em tx	C		81	:::49154	6001:db80::200:ff:fe00:7:1235	40	
3.06	em tx	C		82	:::49154	6001:db80::200:ff:fe00:7:1236	40	
3.12	em tx	C		83	:::49154	6001:db80::200:ff:fe00:7:1237	40	
3.18	em tx	C		84	:::49154	6001:db80::200:ff:fe00:7:1238	40	
3.24	em tx	C		85	:::49154	6001:db80::200:ff:fe00:7:1239	40	
3.3	em tx	C		86	:::49154	6001:db80::200:ff:fe00:7:1240	40	
3.36	em tx	C		87	:::49154	6001:db80::200:ff:fe00:7:1241	40	
3.42	em tx	C		88	:::49154	6001:db80::200:ff:fe00:7:1242	40	
3.48	em tx	C		89	:::49154	6001:db80::200:ff:fe00:7:1243	40	
3.54	em tx	C		90	:::49154	6001:db80::200:ff:fe00:7:1244	40	
3.6	em tx	C		91	:::49154	6001:db80::200:ff:fe00:7:1245	40	
3.66	em tx	C		92	:::49154	6001:db80::200:ff:fe00:7:1246	40	
3.72	em tx	C		93	:::49154	6001:db80::200:ff:fe00:7:1247	40	
3.78	em tx	C		94	:::49154	6001:db80::200:ff:fe00:7:1248	40	
3.84	em tx	C		95	:::49154	6001:db80::200:ff:fe00:7:1249	40	
3.9	em tx	C		96	:::49154	6001:db80::200:ff:fe00:7:1250	40	
3.96	em tx	C		97	:::49154	6001:db80::200:ff:fe00:7:1251	40	
4.02	em tx	C		98	:::49154	6001:db80::200:ff:fe00:7:1252	40	
4.08	em tx	C		99	:::49154	6001:db80::200:ff:fe00:7:1253	40	
4.14	em tx	C		100	:::49154	6001:db80::200:ff:fe00:7:1254	40	
5.92847	em tx	C		83	:::49154	6001:db80::200:ff:fe00:7:1237	40	
8.73694	em tx	C		83	:::49154	6001:db80::200:ff:fe00:7:1237	40	
10.4638	em tx	C		92	:::49154	6001:db80::200:ff:fe00:7:1246	40	
11.5454	em tx	C		83	:::49154	6001:db80::200:ff:fe00:7:1237	40	
11.654	em tx	C		82	:::49154	6001:db80::200:ff:fe00:7:1236	40	
13.6248	em tx	C		81	:::49154	6001:db80::200:ff:fe00:7:1235	40	
14.3539	em tx	C		83	:::49154	6001:db80::200:ff:fe00:7:1237	40	
15.6102	em tx	C		95	:::49154	6001:db80::200:ff:fe00:7:1249	40	
17.1624	em tx	C		83	:::49154	6001:db80::200:ff:fe00:7:1237	40	
17.2676	em tx	C		92	:::49154	6001:db80::200:ff:fe00:7:1246	40	
19.9708	em tx	C		83	:::49154	6001:db80::200:ff:fe00:7:1237	40	
20.248	em tx	C		82	:::49154	6001:db80::200:ff:fe00:7:1236	40	
22.2308	em tx	C		86	:::49154	6001:db80::200:ff:fe00:7:1240	40	
22.7793	em tx	C		83	:::49154	6001:db80::200:ff:fe00:7:1237	40	
24.0714	em tx	C		92	:::49154	6001:db80::200:ff:fe00:7:1246	40	
24.2496	em tx	C		81	:::49154	6001:db80::200:ff:fe00:7:1235	40	
25.5878	em tx	C		83	:::49154	6001:db80::200:ff:fe00:7:1237	40	
27.3804	em tx	C		95	:::49154	6001:db80::200:ff:fe00:7:1249	40	
28.3962	em tx	C		83	:::49154	6001:db80::200:ff:fe00:7:1237	40	
28.842	em tx	C		82	:::49154	6001:db80::200:ff:fe00:7:1236	40	
29.1949	em tx	C		91	:::49154	6001:db80::200:ff:fe00:7:1245	40	
30.8752	em tx	C		92	:::49154	6001:db80::200:ff:fe00:7:1246	40	
31.2047	em tx	C		83	:::49154	6001:db80::200:ff:fe00:7:1237	40	
49	40	
27.4279	em tx	C		91	:::49154	6001:db80::200:ff:fe00:7:1245	40	
27.7244	em tx	C		94	:::49154	6001:db80::200:ff:fe00:7:1248	40	
28.4531	em tx	C		81	:::49154	6001:db80::200:ff:fe00:7:1235	40	
28.7312	em tx	C		87	:::49154	6001:db80::200:ff:fe00:7:1241	40	
29.2124	em tx	C		86	:::49154	6001:db80::200:ff:fe00:7:1240	40	
29.8515	em tx	C		96	:::49154	6001:db80::200:ff:fe00:7:1250	40	
29.9012	em tx	C		94	:::49154	6001:db80::200:ff:fe00:7:1248	40	
30.0405	em tx	C		82	:::49154	6001:db80::200:ff:fe00:7:1236	40	
31.8231	em tx	C		83	:::49154	6001:db80::200:ff:fe00:7:1237	40	
32.0779	em tx	C		94	:::49154	6001:db80::200:ff:fe00:7:1248	40	
32.5642	em tx	C		98	:::49154	6001:db80::200:ff:fe00:7:1252	40	
33.0954	em tx	C		96	:::49154	6001:db80::200:ff:fe00:7:1250	40	
tx	C		92	:::49154	6001:db80::200:ff:fe00:7:1246	40	
24.0337	em tx	C		89	:::49154	6001:db80::200:ff:fe00:7:1243	40	
24.0795	em tx	C		87	:::49154	6001:db80::200:ff:fe00:7:1241	40	
24.4794	em tx	C		94	:::49154	6001:db80::200:ff:fe00:7:1248	40	
24.5426	em tx	C		85	:::49154	6001:db80::200:ff:fe00:7:1239	40	
24.8296	em tx	C		84	:::49154	6001:db80::200:ff:fe00:7:1238	40	
25.5143	em tx	C		94	:::49154	6001:db80::200:ff:fe00:7:1248	40	
26.3175	em tx	C		89	:::49154	6001:db80::200:ff:fe00:7:1243	40	
26.5493	em tx	C		94	:::49154	6001:db80::200:ff:fe00:7:1248	40	
27.1072	em tx	C		100	:::49154	6001:db80::200:ff:fe00:7:1254	40	
27.278	em tx	C		82	:::49154	6001:db80::200:ff:fe00:7:1236	40	
27.5843	em tx	C		94	:::49154	6001:db80::200:ff:fe00:7:1248	40	
28.6012	em tx	C		89	:::49154	6001:db80::200:ff:fe00:7:1243	40	
28.6192	em tx	C		94	:::49154	6001:db80::200:ff:fe00:7:1248	40	
29.6542	em tx	C		94	:::49154	6001:db80::200:ff:fe00:7:1248	40	
30.6892	em tx	C		94	:::49154	6001:db80::200:ff:fe00:7:1248	40	
30.7073	em tx	C		98	:::49154	6001:db80::200:ff:fe00:7:1252	40	
30.885	em tx	C		89	:::49154	6001:db80::200:ff:fe00:7:1243	40	
31.7241	em tx	C		94	:::49154	6001:db80::200:ff:fe00:7:1248	40	
32.1216	em tx	C		82	:::49154	6001:db80::200:ff:fe00:7:1236	40	
32.7591	em tx	C		94	:::49154	6001:db80::200:ff:fe00:7:1248	40	
33.1687	em tx	C		89	:::49154	6001:db80::200:ff:fe00:7:1243	40	
em tx	C		94	:::49154	6001:db80::200:ff:fe00:7:1248	40	
24.4984	em tx	C		94	:::49154	6001:db80::200:ff:fe00:7:1248	40	
24.7966	em tx	C		99	:::49154	6001:db80::200:ff:fe00:7:1253	40	
25.0904	em tx	C		94	:::49154	6001:db80::200:ff:fe00:7:1248	40	
25.3168	em tx	C		85	:::49154	6001:db80::200:ff:fe00:7:1239	40	
25.56	em tx	C		95	:::49154	6001:db80::200:ff:fe00:7:1249	40	
25.6823	em tx	C		94	:::49154	6001:db80::200:ff:fe00:7:1248	40	
26.2743	em tx	C		94	:::49154	6001:db80::200:ff:fe00:7:1248	40	
26.7291	em tx	C		89	:::49154	6001:db80::200:ff:fe00:7:1243	40	
26.8662	em tx	C		94	:::49154	6001:db80::200:ff:fe00:7:1248	40	
27.4582	em tx	C		94	:::49154	6001:db80::200:ff:fe00:7:1248	40	
27.5245	em tx	C		85	:::49154	6001:db80::200:ff:fe00:7:1239	40	
27.9373	em tx	C		81	:::49154	6001:db80::200:ff:fe00:7:1235	40	
28.0501	em tx	C		94	:::49154	6001:db80::200:ff:fe00:7:1248	40	
28.6421	em tx	C		94	:::49154	6001:db80::200:ff:fe00:7:1248	40	
29.18	em tx	C		95	:::49154	6001:db80::200:ff:fe00:7:1249	40	
29.2341	em tx	C		94	:::49154	6001:db80::200:ff:fe00:7:1248	40	
29.7321	em tx	C		85	:::49154	6001:db80::200:ff:fe00:7:1239	40	
29.826	em tx	C		94	:::49154	6001:db80::200:ff:fe00:7:1248	40	
30.418	em tx	C		94	:::49154	6001:db80::200:ff:fe00:7:1248	40	
30.604	em tx	C		89	:::49154	6001:db80::200:ff:fe00:7:1243	40	
31.0099	em tx	C		94	:::49154	6001:db80::200:ff:fe00:7:1248	40	
31.6019	em tx	C		94	:::49154	6001:db80::200:ff:fe00:7:1248	40	
31.9398	em tx	C		85	:::49154	6001:db80::200:ff:fe00:7:1239	40	
32.1938	em tx	C		94	:::49154	6001:db80::200:ff:fe00:7:1248	40	
32.7858	em tx	C		94	:::49154	6001:db80::200:ff:fe00:7:1248	40	
32.8	em tx	C		95	:::49154	6001:db80::200:ff:fe00:7:1249	40	
33.3777	em tx	C		94	:::49154	6001:db80::200:ff:fe00:7:1248	40	
001:db80::200:ff:fe00:7:1248	40	
33.5855	em tx	C		93	:::49154	6001:db80::200:ff:fe00:7:1247	40	
