ModifiedSdRsrp	53	-60	1	1	-80	80	2	120	120	2	2	9.71438	 control 22 0 to 49 data 25 0 to 49 offset 0 and 4 4 subframes for control sf12 u*0.06 data bitmap 0x00000FFF 10Mhz
ModifiedSdRsrp	53	-60	1	1	-80	80	2	120	120	2	2	13.8753	 control 50 0 to 99 data 50 0 to 99 offset 0 and 4 4 subframes for control sf12 u*0.06 data bitmap 0x00000FFF
ModifiedSdRsrp	53	-60	1	1	-80	80	20	1197	1204	152	153	29.3398	 control 50 0 to 99 data 50 0 to 99 offset 0 and 4 4 subframes for control sf16 u*0.06 data bitmap 0x00000FFFF
ModifiedSdRsrp	53	-60	1	1	-80	80	20	1199	1203	152	153	28.4909	 control 50 0 to 99 data 50 0 to 99 offset 0 and 4 4 subframes for control sf16 u*0.08 data bitmap 0x00000FFFF
ModifiedSdRsrp	53	-60	1	1	-80	80	20	1193	1204	149	153	29.5665	 control 22 0 to 49 data 25 0 to 49 offset 0 and 4 4 subframes for control sf12 u*0.06 data bitmap 0x00000FFF 10Mhz
ModifiedSdRsrp	53	-60	1	1	-80	80	20	1200	1204	153	153	30.4507	 control 50 0 to 99 data 50 0 to 99 offset 0 and 4 4 subframes for control sf12 u*0.06 data bitmap 0x00000FFF
ModifiedSdRsrp	53	-60	1	1	-80	80	2	120	120	2	2	14.2301	 control 50 0 to 99 data 50 0 to 99 offset 0 and 4 4 subframes for control sf16 u*0.06 data bitmap 0x00000FFFF
ModifiedSdRsrp	12	-60	1	1	-80	80	2	120	120	2	2	11.9388	 control 50 0 to 99 data 50 0 to 99 offset 0 and 4 4 subframes for control sf16 u*0.06 data bitmap 0x00000FFFF
ModifiedSdRsrp	13	-60	1	1	-80	80	2	120	120	5	5	11.8225	 control 50 0 to 99 data 50 0 to 99 offset 0 and 4 4 subframes for control sf16 u*0.06 data bitmap 0x00000FFFF
ModifiedSdRsrp	19	-60	1	1	-80	80	2	120	120	5	5	11.6848	 control 50 0 to 99 data 50 0 to 99 offset 0 and 4 4 subframes for control sf16 u*0.06 data bitmap 0x00000FFFF
ModifiedSdRsrp	99	-60	1	1	-80	80	2	120	120	4	4	7.78464	 control 50 0 to 99 data 50 0 to 99 offset 0 and 4 4 subframes for control sf16 u*0.06 data bitmap 0x00000FFFF
ModifiedSdRsrp	79	-60	1	1	-80	80	2	120	120	2	2	11.3822	 control 50 0 to 99 data 50 0 to 99 offset 0 and 4 4 subframes for control sf16 u*0.06 data bitmap 0x00000FFFF
ModifiedSdRsrp	83	-60	1	1	-80	80	2	120	120	4	4	14.2459	 control 50 0 to 99 data 50 0 to 99 offset 0 and 4 4 subframes for control sf16 u*0.06 data bitmap 0x00000FFFF
ModifiedSdRsrp	99	-60	1	1	-80	80	20	1198	1204	36	38	29.6837	 Algorithm test start
ModifiedSdRsrp	79	-60	1	1	-80	80	20	1199	1204	39	39	29.2061	 Algorithm test start
ModifiedSdRsrp	53	-60	1	1	-80	80	20	1200	1204	153	153	30.4507	 Algorithm test start
ModifiedSdRsrp	17	-60	1	1	-80	80	20	1196	1204	52	52	30.1048	 Algorithm test start
ModifiedSdRsrp	27	-60	1	1	-80	80	20	1198	1204	105	105	29.3215	 Algorithm test start
ModifiedSdRsrp	12	-60	1	1	-80	80	20	1196	1204	49	50	28.5129	 Algorithm test start
ModifiedSdRsrp	19	-60	1	1	-80	80	20	1196	1204	783	832	30.1059	 Algorithm test start
ModifiedSdRsrp	7	-60	1	1	-80	80	20	1198	1204	40	40	30.2248	 Algorithm test start
ModifiedSdRsrp	15	-60	1	1	-80	80	20	1190	1204	47	49	29.8661	 Algorithm test start
ModifiedSdRsrp	2	-60	1	1	-80	80	20	1200	1204	56	56	29.9525	 Algorithm test start
ModifiedSdRsrp	81	-60	1	1	-80	80	20	1197	1204	44	47	30.4997	 Algorithm test start
MaxSDRsrpNoReselection	7	-60	1	1	-80	80	20	1190	1204	40	40	30.4136	 Algorithm test start
ModifiedSdRsrp	66	-60	1	1	-80	80	20	1199	1204	62	62	28.9427	 Algorithm test start
MaxSDRsrpNoReselection	2	-60	1	1	-80	80	20	1199	1204	56	56	30.1309	 Algorithm test start
MaxSDRsrpNoReselection	17	-60	1	1	-80	80	20	1193	1204	51	52	30.0795	 Algorithm test start
MaxSDRsrpNoReselection	12	-60	1	1	-80	80	20	1196	1204	49	50	28.5129	 Algorithm test start
MaxSDRsrpNoReselection	15	-60	1	1	-80	80	20	1194	1204	48	49	29.7047	 Algorithm test start
MaxSDRsrpNoReselection	27	-60	1	1	-80	80	20	1198	1204	105	105	29.2509	 Algorithm test start
MaxSDRsrpNoReselection	53	-60	1	1	-80	80	20	1198	1204	151	153	30.4892	 Algorithm test start
MaxSDRsrpNoReselection	19	-60	1	1	-80	80	20	1196	1204	783	832	30.1059	 Algorithm test start
MaxSDRsrpNoReselection	53	-60	1	1	-80	80	20	1198	1204	151	153	30.4892	 Algorithm test start
MaxSDRsrpNoReselection	12	-60	1	1	-80	80	20	1196	1204	49	50	28.5129	 Algorithm test start
MaxSDRsrpNoReselection	81	-60	1	1	-80	80	20	1189	1204	43	47	30.164	 Algorithm test start
MaxSDRsrpNoReselection	99	-60	1	1	-80	80	20	1198	1204	36	38	29.7023	 Algorithm test start
MaxSDRsrpNoReselection	79	-60	1	1	-80	80	20	1198	1204	39	39	29.2203	 Algorithm test start
MaxSDRsrpNoReselection	99	-60	1	1	-80	80	20	1198	1204	36	38	29.7023	 Algorithm test start
MaxSDRsrpNoReselection	65	-60	1	1	-80	80	20	1199	1204	41	41	30.4878	 Algorithm test start
MaxSDRsrpNoReselection	63	-60	1	1	-80	80	30	1797	1805	61	61	31.3495	 Algorithm test start
ModifiedSdRsrp	63	-60	1	1	-80	80	30	1796	1805	61	61	31.2844	 Algorithm test start
MaxSDRsrpNoReselection	65	-60	1	1	-80	80	30	1792	1805	420	429	30.905	 Algorithm test start
ModifiedSdRsrp	65	-60	1	1	-80	80	30	1794	1805	423	429	30.8128	 Algorithm test start
ModifiedSdRsrp	66	-60	1	1	-80	80	20	1199	1204	62	62	28.9427	 Algorithm test start
MaxSDRsrp	66	-60	1	1	-70	80	20	1147	1204	60	62	31.0915	 Algorithm test start
MaxSDRsrp	7	-60	1	1	-70	80	20	1151	1204	39	40	31.8484	 Algorithm test start
MaxSDRsrp	2	-60	1	1	-70	80	20	1153	1204	55	56	31.8053	 Algorithm test start
MaxSDRsrp	99	-60	1	1	-70	80	20	1140	1204	35	38	31.4284	 Algorithm test start
MaxSDRsrp	79	-60	1	1	-70	80	20	1131	1204	38	39	31.6239	 Algorithm test start
MaxSDRsrp	27	-60	1	1	-70	80	20	1126	1204	100	105	31.6771	 Algorithm test start
MaxSDRsrp	53	-60	1	1	-70	80	20	1143	1204	149	153	31.4841	 Algorithm test start
MaxSDRsrp	33	-60	1	1	-70	80	20	1154	1204	41	43	31.1538	 Algorithm test start
MaxSDRsrp	45	-60	1	1	-70	80	20	1147	1204	42	43	31.6886	 Algorithm test start
MaxSDRsrp	57	-60	1	1	-70	80	20	1140	1204	91	96	32.0991	 Algorithm test start
ModifiedSdRsrp	2	-60	1	1	-70	80	4	240	240	28	28	22.1838	 Algorithm test start
ModifiedSdRsrp	7	-60	1	1	-70	80	4	238	240	6	6	23.0779	 Algorithm test start
MaxSDRsrp	54	-60	1	1	-70	80	20	1132	1204	83	86	31.7495	 Algorithm test start
MaxSDRsrp	27	-60	1	1	-70	80	20	1126	1204	100	105	31.6771	 Algorithm test start
MaxSDRsrpNoReselection	2	-60	0	0	-80	80	2	120	120	3	3	6.11625	 Algorithm test start round robin Scheduler
ModifiedSdRsrp	15	-60	1	1	-80	80	4	240	240	11	11	20.6022	 Remote Node Variation
ModifiedSdRsrp	12	-60	1	1	-80	80	4	240	240	11	11	20.2648	 Remote Node Variation
ModifiedSdRsrp	53	-60	1	1	-80	80	4	240	240	6	6	19.4396	 Remote Node Variation
ModifiedSdRsrp	17	-60	1	1	-80	80	4	240	240	8	8	21.3748	 Remote Node Variation
ModifiedSdRsrp	99	-60	1	1	-80	80	4	240	240	17	17	20.4024	 Remote Node Variation
ModifiedSdRsrp	19	-60	1	1	-80	80	4	240	240	9	9	21.1183	 Remote Node Variation
ModifiedSdRsrp	27	-60	1	1	-80	80	4	240	240	5	5	21.5243	 Remote Node Variation
ModifiedSdRsrp	66	-60	1	1	-80	80	4	240	240	14	14	21.286	 Remote Node Variation
ModifiedSdRsrp	79	-60	1	1	-80	80	4	240	240	24	24	21.4294	 Remote Node Variation
ModifiedSdRsrp	81	-60	1	1	-80	80	4	239	240	20	20	21.9711	 Remote Node Variation
MaxSDRsrpNoReselection	57	-60	1	1	-80	80	20	1198	1204	96	96	31.8998	 Algorithm test start
ModifiedSdRsrp	2	-60	0	0	-80	80	20	1200	1204	56	56	16.3814	 Remote Node Variation round robin 
ModifiedSdRsrp	2	-60	0	0	-80	80	20	1200	1204	56	56	16.3883	 Remote Node Variation normal Scheduler 
ModifiedSdRsrp	2	-60	0	0	-80	80	20	1200	1204	56	56	16.3814	 Remote Node Variation round robin Scheduler 
ModifiedSdRsrp	2	-60	0	0	-80	80	20	1200	1204	56	56	16.3883	 Remote Node Variation normal Scheduler 
ModifiedSdRsrp	2	-60	1	1	-80	80	6	360	360	19	19	24.6993	 Remote Node Variation 
ModifiedSdRsrp	7	-60	1	1	-80	80	6	360	360	8	8	25.3259	 Remote Node Variation 
ModifiedSdRsrp	15	-60	1	1	-80	80	6	360	360	12	12	24.3359	 Remote Node Variation 
ModifiedSdRsrp	12	-60	1	1	-80	80	6	360	360	9	9	22.3566	 Remote Node Variation 
ModifiedSdRsrp	17	-60	1	1	-80	80	6	360	360	25	25	25.3267	 Remote Node Variation 
ModifiedSdRsrp	27	-60	1	1	-80	80	6	359	360	20	21	24.8964	 Remote Node Variation 
ModifiedSdRsrp	53	-60	1	1	-80	80	6	359	360	12	13	24.3987	 Remote Node Variation 
ModifiedSdRsrp	19	-60	1	1	-80	80	6	360	360	10	10	24.6283	 Remote Node Variation 
ModifiedSdRsrp	79	-60	1	1	-80	80	6	360	360	9	9	23.0909	 Remote Node Variation 
MaxSDRsrpNoReselection	2	-60	1	1	-80	80	20	1178	1204	51	56	47.0698	 Remote Node Variation sf40 
ModifiedSdRsrp	99	-60	1	1	-80	80	6	360	360	8	8	24.0408	 Remote Node Variation 
ModifiedSdRsrp	81	-60	1	1	-80	80	6	360	360	24	24	24.8951	 Remote Node Variation 
ModifiedSdRsrp	2	-60	1	1	-80	80	8	480	481	15	15	26.801	 Remote Node Variation  
ModifiedSdRsrp	7	-60	1	1	-80	80	8	480	481	36	36	25.029	 Remote Node Variation  
ModifiedSdRsrp	12	-60	1	1	-80	80	8	480	481	11	11	24.6882	 Remote Node Variation  
ModifiedSdRsrp	99	-60	1	1	-80	80	8	480	481	19	19	25.4348	 Remote Node Variation  
ModifiedSdRsrp	15	-60	1	1	-80	80	8	480	481	27	27	25.1098	 Remote Node Variation  
ModifiedSdRsrp	17	-60	1	1	-80	80	8	480	481	11	11	26.764	 Remote Node Variation  
ModifiedSdRsrp	19	-60	1	1	-80	80	8	480	481	9	9	26.6998	 Remote Node Variation  
ModifiedSdRsrp	27	-60	1	1	-80	80	8	480	481	20	20	26.6511	 Remote Node Variation  
ModifiedSdRsrp	79	-60	1	1	-80	80	8	480	481	15	15	25.6384	 Remote Node Variation  
ModifiedSdRsrp	53	-60	1	1	-80	80	8	480	481	12	12	24.1151	 Remote Node Variation  
ModifiedSdRsrp	2	-60	1	1	-80	80	20	1193	1204	55	56	48.3267	 Remote Node Variation sf40 
ModifiedSdRsrp	66	-60	1	1	-80	80	6	360	360	8	8	24.2674	 Remote Node Variation 
ModifiedSdRsrp	99	-60	1	1	-80	80	10	600	601	18	18	25.9026	 Remote Node Variation 
ModifiedSdRsrp	81	-60	1	1	-80	80	10	600	601	28	28	26.5571	 Remote Node Variation 
ModifiedSdRsrp	79	-60	1	1	-80	80	10	600	601	23	23	27.7552	 Remote Node Variation 
ModifiedSdRsrp	19	-60	1	1	-80	80	10	600	601	20	20	28.0602	 Remote Node Variation 
ModifiedSdRsrp	12	-60	1	1	-80	80	10	599	601	14	14	25.8514	 Remote Node Variation 
ModifiedSdRsrp	53	-60	1	1	-80	80	10	600	601	18	18	25.4736	 Remote Node Variation 
ModifiedSdRsrp	27	-60	1	1	-80	80	10	600	601	22	22	27.7172	 Remote Node Variation 
ModifiedSdRsrp	15	-60	1	1	-80	80	10	599	601	33	33	27.3365	 Remote Node Variation 
ModifiedSdRsrp	7	-60	1	1	-80	80	10	599	601	18	18	26.4475	 Remote Node Variation 
ModifiedSdRsrp	2	-60	1	1	-80	80	10	600	601	88	88	26.7295	 Remote Node Variation 
ModifiedSdRsrp	17	-60	1	1	-80	80	10	600	601	128	129	26.9557	 Remote Node Variation 
MaxSDRsrpNoReselection	7	-60	1	1	-80	80	10	592	601	18	18	47.8155	 Remote Node Variation 
ModifiedSdRsrp	7	-60	1	1	-80	80	10	600	601	18	18	46.4858	 Remote Node Variation 
ModifiedSdRsrp	15	-60	1	1	-80	80	10	599	601	32	33	47.2482	 Remote Node Variation 
MaxSDRsrpNoReselection	15	-60	1	1	-80	80	10	598	601	31	33	47.2461	 Remote Node Variation 
ModifiedSdRsrp	12	-60	1	1	-80	80	10	598	601	14	14	42.7404	 Remote Node Variation 
MaxSDRsrpNoReselection	12	-60	1	1	-80	80	10	598	601	13	14	42.8966	 Remote Node Variation 
MaxSDRsrpNoReselection	99	-60	1	1	-80	80	10	600	601	18	18	44.0886	 Remote Node Variation 
MaxSDRsrpNoReselection	53	-60	1	1	-80	80	10	597	601	17	18	43.9252	 Remote Node Variation 
MaxSDRsrpNoReselection	19	-60	1	1	-80	80	10	600	601	20	20	50.5779	 Remote Node Variation 
MaxSDRsrpNoReselection	17	-60	1	1	-80	80	10	587	601	125	129	46.8182	 Remote Node Variation 
ModifiedSdRsrp	17	-60	1	1	-80	80	10	588	601	125	129	46.5728	 Remote Node Variation 
MaxSDRsrpNoReselection	79	-60	1	1	-80	80	10	599	601	22	23	50.8519	 Remote Node Variation 
MaxSDRsrpNoReselection	27	-60	1	1	-80	80	10	600	601	22	22	50.9057	 Remote Node Variation 
MaxSDRsrpNoReselection	7	-60	1	1	-80	80	20	1181	1204	40	40	48.5178	 Remote Node Variation 
MaxSDRsrpNoReselection	17	-60	1	1	-80	80	20	1184	1204	50	52	48.7792	 Remote Node Variation 
MaxSDRsrpNoReselection	12	-60	1	1	-80	80	20	1192	1204	49	50	45.9422	 Remote Node Variation 
MaxSDRsrpNoReselection	15	-60	1	1	-80	80	20	1190	1204	48	49	47.947	 Remote Node Variation 
ModifiedSdRsrp	7	-60	1	1	-80	80	20	1191	1204	40	40	49.4104	 Remote Node Variation 
MaxSDRsrpNoReselection	53	-60	1	1	-80	80	20	1196	1204	149	153	48.4817	 Remote Node Variation 
MaxSDRsrpNoReselection	27	-60	1	1	-80	80	20	1188	1204	102	105	48.1641	 Remote Node Variation 
ModifiedSdRsrp	17	-60	1	1	-80	80	20	1188	1204	51	52	49.3443	 Remote Node Variation 
ModifiedSdRsrp	12	-60	1	1	-80	80	20	1192	1204	49	50	45.9422	 Remote Node Variation 
ModifiedSdRsrp	15	-60	1	1	-80	80	20	1188	1204	49	49	48.8218	 Remote Node Variation 
MaxSDRsrpNoReselection	19	-60	1	1	-80	80	20	1169	1204	694	832	48.7343	 Remote Node Variation 
ModifiedSdRsrp	27	-60	1	1	-80	80	20	1191	1204	102	105	48.1014	 Remote Node Variation 
ModifiedSdRsrp	19	-60	1	1	-80	80	20	1169	1204	694	832	48.7343	 Remote Node Variation 
ModifiedSdRsrp	81	-60	1	1	-80	80	8	480	481	12	12	26.4882	 Remote Node Variation 
ModifiedSdRsrp	66	-60	1	1	-80	80	8	480	481	13	13	24.9617	 Remote Node Variation 
ModifiedSdRsrp	63	-60	1	1	-80	80	10	599	601	32	32	27.1374	 Remote Node Variation 
MaxSDRsrpNoReselection	81	-60	1	1	-80	80	20	1127	1204	43	47	49.4591	 Remote Node Variation 
MaxSDRsrpNoReselection	79	-60	1	1	-80	80	20	1196	1204	39	39	48.4432	 Remote Node Variation 
MaxSDRsrpNoReselection	99	-60	1	1	-80	80	20	1183	1204	36	38	49.2328	 Remote Node Variation 
MaxSDRsrpNoReselection	66	-60	1	1	-80	80	20	1194	1204	61	62	47.163	 Remote Node Variation 
MaxSDRsrpNoReselection	7	-60	1	1	-80	80	20	1190	1204	40	40	30.4136	 Remote Node Variation 
ModifiedSdRsrp	99	-60	1	1	-80	80	20	1182	1204	35	38	48.5005	 Remote Node Variation 
ModifiedSdRsrp	53	-60	1	1	-80	80	20	1196	1204	149	153	48.2818	 Remote Node Variation 
ModifiedSdRsrp	66	-60	1	1	-80	80	20	1191	1204	60	62	47.3211	 Remote Node Variation 
ModifiedSdRsrp	79	-60	1	1	-80	80	20	1194	1204	39	39	48.476	 Remote Node Variation 
ModifiedSdRsrp	81	-60	1	1	-80	80	20	1193	1204	44	47	52.645	 Remote Node Variation 
ModifiedSdRsrp	7	-60	1	1	-80	80	20	1198	1200	40	40	31.5114	 Node Interval Variation u*0.012 
ModifiedSdRsrp	2	-60	1	1	-80	80	20	1200	1200	56	56	31.2781	 Node Interval Variation u*0.012 
ModifiedSdRsrp	53	-60	1	1	-80	80	20	1193	1200	151	153	31.997	 Node Interval Variation u*0.012 
ModifiedSdRsrp	53	-60	1	1	-80	80	20	1193	1208	152	153	31.51	 Node Interval Variation u*0.006 
ModifiedSdRsrp	2	-60	1	1	-80	80	20	1199	1208	56	56	31.4239	 Node Interval Variation u*0.006 
ModifiedSdRsrp	2	-60	1	1	-80	80	20	1195	1200	56	56	30.628	 Node Interval Variation u*0.008 
ModifiedSdRsrp	2	-60	1	1	-80	80	20	1197	1200	56	56	31.1998	 Node Interval Variation u*0.004 
ModifiedSdRsrp	53	-60	1	1	-80	80	20	1196	1200	152	153	31.0662	 Node Interval Variation u*0.008 
ModifiedSdRsrp	53	-60	1	1	-80	80	20	1195	1200	153	153	31.0614	 Node Interval Variation u*0.004 
ModifiedSdRsrp	2	-60	1	1	-80	80	20	1438	1443	63	63	30.4503	 Node Interval Variation 3.6+u*0.06+36  
ModifiedSdRsrp	66	-60	1	1	-80	80	2	119	120	3	3	39.3861	 Node Interval Variation sf60  
ModifiedSdRsrp	81	-60	1	1	-80	80	2	110	120	97	113	67.6271	 Node Interval Variation sf60  
ModifiedSdRsrp	2	-60	1	1	-80	80	20	1197	1204	56	56	28.8187	 Node Interval Variation u*24   
ModifiedSdRsrp	53	-60	1	1	-80	80	20	1197	1204	152	153	28.9345	 Node Interval Variation u*24   
ModifiedSdRsrp	53	-60	1	1	-80	80	20	1193	1202	153	153	28.3233	 Node Interval Variation u*0.1   
ModifiedSdRsrp	2	-60	1	1	-80	80	20	1192	1202	56	56	28.5001	 Node Interval Variation u*0.1   
ModifiedSdRsrp	2	-60	1	1	-80	80	20	1200	1204	56	56	29.9525	 Node Interval Variation control PRB 80 
ModifiedSdRsrp	53	-60	1	1	-80	80	20	1200	1204	153	153	30.4507	 Node Interval Variation control PRB 80 
ModifiedSdRsrp	33	-60	1	1	-80	80	2	119	120	1	2	54.6886	 Node Interval Variation control sf80 
ModifiedSdRsrp	37	-60	1	1	-80	80	2	117	120	16	20	57.94	 Node Interval Variation control sf80 
ModifiedSdRsrp	54	-60	1	1	-80	80	2	120	120	2	2	60.0277	 Node Interval Variation control sf80 
ModifiedSdRsrp	12	-60	1	1	-80	80	20	1197	1204	49	50	27.354	 Node Interval Variation u*0.024 control 80PRBs 
ModifiedSdRsrp	19	-60	1	1	-80	80	20	1196	1204	786	832	28.8414	 Node Interval Variation u*0.024 control 80PRBs 
ModifiedSdRsrp	12	-60	1	1	-80	80	20	1197	1204	49	50	27.354	 Node Interval Variation u*0.024 control 80PRBs data 70 
ModifiedSdRsrp	19	-60	1	1	-80	80	20	1196	1204	786	832	28.8414	 Node Interval Variation u*0.024 control 80PRBs data 70 
ModifiedSdRsrp	12	-60	1	1	-80	80	20	1197	1204	49	50	27.354	 Node Interval Variation u*0.024 control 50PRBs data 50 
ModifiedSdRsrp	19	-60	1	1	-80	80	20	1196	1204	786	832	28.8414	 Node Interval Variation u*0.024 control 50PRBs data 50 
ModifiedSdRsrp	12	-60	1	1	-80	80	20	1196	1204	49	50	28.5129	 Node Interval Variation u*0.06 control 80PRBs data 80 
ModifiedSdRsrp	53	-60	1	1	-80	80	20	1200	1204	153	153	30.4507	 Node Interval Variation u*0.06 control 80PRBs data 80 
ModifiedSdRsrp	12	-60	1	1	-80	80	20	1197	1204	49	50	27.354	 Node Interval Variation u*0.024 control 80PRBs data 80 
ModifiedSdRsrp	53	-60	1	1	-80	80	20	1197	1204	152	153	28.9345	 Node Interval Variation u*0.024 control 80PRBs data 80 
ModifiedSdRsrp	12	-60	1	1	-80	80	20	1197	1204	49	50	27.354	 Node Interval Variation u*0.024 control 50PRBs data 50 
ModifiedSdRsrp	53	-60	1	1	-80	80	20	1197	1204	152	153	28.9345	 Node Interval Variation u*0.024 control 50PRBs data 50 
ModifiedSdRsrp	53	-60	1	1	-80	80	20	1200	1204	153	153	30.3534	 Node Interval Variation u*0.036 control 50PRBs data 50 
ModifiedSdRsrp	2	-60	1	1	-80	80	20	1199	1204	56	56	30.1709	 Node Interval Variation u*0.036 control 50PRBs data 50 
ModifiedSdRsrp	19	-60	1	1	-80	80	20	1195	1204	782	832	30.2979	 Node Interval Variation u*0.036 control 50PRBs data 50 
ModifiedSdRsrp	2	-60	1	1	-80	80	20	1199	1204	56	56	29.8921	 Node Interval Variation u*0.048 control 50PRBs data 50 
ModifiedSdRsrp	53	-60	1	1	-80	80	20	1197	1204	153	153	30.1765	 Node Interval Variation u*0.048 control 50PRBs data 50 
ModifiedSdRsrp	19	-60	1	1	-80	80	20	1188	1204	779	832	29.8348	 Node Interval Variation u*0.048 control 50PRBs data 50 
ModifiedSdRsrp	2	-60	1	1	-80	80	12	718	721	51	53	27.9936	 Node numbers
ModifiedSdRsrp	17	-60	1	1	-80	80	12	718	721	35	36	27.3532	 Node numbers
ModifiedSdRsrp	15	-60	1	1	-80	80	12	719	721	71	72	28.3295	 Node numbers
ModifiedSdRsrp	7	-60	1	1	-80	80	12	718	721	60	61	28.5042	 Node numbers
ModifiedSdRsrp	12	-60	1	1	-80	80	12	720	721	23	23	27.7754	 Node numbers
ModifiedSdRsrp	27	-60	1	1	-80	80	12	720	721	19	19	28.0777	 Node numbers
ModifiedSdRsrp	53	-60	1	1	-80	80	12	718	721	26	27	26.9414	 Node numbers
ModifiedSdRsrp	79	-60	1	1	-80	80	12	719	721	39	41	27.4263	 Node numbers
ModifiedSdRsrp	99	-60	1	1	-80	80	12	720	721	24	24	27.2687	 Node numbers
ModifiedSdRsrp	81	-60	1	1	-80	80	12	718	721	30	31	28.6882	 Node numbers
ModifiedSdRsrp	63	-60	1	1	-80	80	12	720	721	108	108	27.0121	 Node numbers
ModifiedSdRsrp	19	-60	1	1	-80	80	12	720	721	27	27	27.9066	 Node numbers
ModifiedSdRsrp	2	-60	1	1	-80	80	14	839	841	30	30	29.1887	 Node numbers
ModifiedSdRsrp	7	-60	1	1	-80	80	14	837	841	32	32	28.7159	 Node numbers
ModifiedSdRsrp	17	-60	1	1	-80	80	14	838	841	39	39	28.3853	 Node numbers
ModifiedSdRsrp	19	-60	1	1	-80	80	14	839	841	39	39	28.4993	 Node numbers
ModifiedSdRsrp	53	-60	1	1	-80	80	14	839	841	38	39	28.1633	 Node numbers
ModifiedSdRsrp	15	-60	1	1	-80	80	14	839	841	24	24	29.041	 Node numbers
ModifiedSdRsrp	27	-60	1	1	-80	80	14	839	841	29	29	29.4275	 Node numbers
ModifiedSdRsrp	79	-60	1	1	-80	80	14	840	841	21	21	27.5714	 Node numbers
ModifiedSdRsrp	81	-60	1	1	-80	80	14	838	841	36	37	29.4499	 Node numbers
ModifiedSdRsrp	99	-60	1	1	-80	80	14	839	841	102	103	26.7454	 Node numbers
ModifiedSdRsrp	63	-60	1	1	-80	80	14	839	841	40	40	27.9993	 Node numbers
ModifiedSdRsrp	12	-60	1	1	-80	80	16	957	962	63	63	28.6673	 Node numbers
ModifiedSdRsrp	2	-60	1	1	-80	80	16	958	962	279	284	29.5727	 Node numbers
ModifiedSdRsrp	17	-60	1	1	-80	80	16	959	962	35	35	28.7361	 Node numbers
ModifiedSdRsrp	15	-60	1	1	-80	80	16	958	962	75	77	29.9099	 Node numbers
ModifiedSdRsrp	7	-60	1	1	-80	80	16	956	962	147	149	29.6547	 Node numbers
ModifiedSdRsrp	19	-60	1	1	-80	80	16	959	962	47	47	28.6017	 Node numbers
ModifiedSdRsrp	99	-60	1	1	-80	80	16	956	962	53	55	29.445	 Node numbers
ModifiedSdRsrp	27	-60	1	1	-80	80	16	959	962	43	45	28.3546	 Node numbers
ModifiedSdRsrp	81	-60	1	1	-80	80	16	957	962	54	54	30.0331	 Node numbers
ModifiedSdRsrp	79	-60	1	1	-80	80	16	957	962	129	134	27.3289	 Node numbers
ModifiedSdRsrp	63	-60	1	1	-80	80	18	1078	1083	55	55	28.4175	 Node numbers
ModifiedSdRsrp	81	-60	1	1	-80	80	18	1079	1083	66	66	30.1242	 Node numbers
ModifiedSdRsrp	63	-60	1	1	-80	80	16	943	962	914	1106	30.2096	 Node numbers
ModifiedSdRsrp	53	-60	1	1	-80	80	18	1079	1083	31	31	29.2957	 Node numbers
ModifiedSdRsrp	19	-60	1	1	-80	80	18	1076	1083	32	33	29.2314	 Node numbers
ModifiedSdRsrp	79	-60	1	1	-80	80	18	1078	1083	40	40	27.0982	 Node numbers
ModifiedSdRsrp	99	-60	1	1	-80	80	18	1071	1083	38	38	30.807	 Node numbers
ModifiedSdRsrp	27	-60	1	1	-80	80	18	1079	1083	46	47	29.2563	 Node numbers
ModifiedSdRsrp	12	-60	1	1	-80	80	18	1074	1083	31	32	28.9962	 Node numbers
ModifiedSdRsrp	17	-60	1	1	-80	80	18	1077	1083	59	59	29.5289	 Node numbers
ModifiedSdRsrp	62	-60	1	1	-80	80	16	958	962	30	31	29.4791	 Node numbers
ModifiedSdRsrp	12	-60	1	1	-80	80	14	836	841	54	57	28.9148	 Node numbers
ModifiedSdRsrp	54	-60	1	1	-80	80	16	957	962	104	106	29.7983	 Node numbers
ModifiedSdRsrp	7	-60	1	1	-80	80	18	1078	1083	32	32	29.6466	 Node numbers
ModifiedSdRsrp	2	-60	1	1	-80	80	18	1077	1083	43	43	29.6001	 Node numbers
ModifiedSdRsrp	15	-60	1	1	-80	80	18	1079	1083	54	55	29.5118	 Node numbers
ModifiedSdRsrp	9	-60	1	1	-80	80	20	1197	1204	37	37	29.734	 Node numbers
ModifiedSdRsrp	27	-60	1	1	-80	80	20	1198	1204	105	105	29.3215	 Node numbers
ModifiedSdRsrp	45	-60	1	1	-80	80	20	1198	1204	43	43	30.118	 Node numbers
