4	em tx	C		81	:::49154	6001:db80::200:ff:fe00:7:1235	40	
4.08	em tx	C		82	:::49154	6001:db80::200:ff:fe00:7:1236	40	
4.16	em tx	C		83	:::49154	6001:db80::200:ff:fe00:7:1237	40	
4.24	em tx	C		84	:::49154	6001:db80::200:ff:fe00:7:1238	40	
4.32	em tx	C		85	:::49154	6001:db80::200:ff:fe00:7:1239	40	
4.4	em tx	C		86	:::49154	6001:db80::200:ff:fe00:7:1240	40	
4.48	em tx	C		87	:::49154	6001:db80::200:ff:fe00:7:1241	40	
4.56	em tx	C		88	:::49154	6001:db80::200:ff:fe00:7:1242	40	
4.64	em tx	C		89	:::49154	6001:db80::200:ff:fe00:7:1243	40	
4.72	em tx	C		90	:::49154	6001:db80::200:ff:fe00:7:1244	40	
4.8	em tx	C		91	:::49154	6001:db80::200:ff:fe00:7:1245	40	
4.88	em tx	C		92	:::49154	6001:db80::200:ff:fe00:7:1246	40	
4.96	em tx	C		93	:::49154	6001:db80::200:ff:fe00:7:1247	40	
5.04	em tx	C		94	:::49154	6001:db80::200:ff:fe00:7:1248	40	
5.12	em tx	C		95	:::49154	6001:db80::200:ff:fe00:7:1249	40	
5.2	em tx	C		96	:::49154	6001:db80::200:ff:fe00:7:1250	40	
5.28	em tx	C		97	:::49154	6001:db80::200:ff:fe00:7:1251	40	
5.36	em tx	C		98	:::49154	6001:db80::200:ff:fe00:7:1252	40	
5.44	em tx	C		99	:::49154	6001:db80::200:ff:fe00:7:1253	40	
5.52	em tx	C		100	:::49154	6001:db80::200:ff:fe00:7:1254	40	
7.9761	em tx	C		93	:::49154	6001:db80::200:ff:fe00:7:1247	40	
8.68956	em tx	C		95	:::49154	6001:db80::200:ff:fe00:7:1249	40	
10.963	em tx	C		94	:::49154	6001:db80::200:ff:fe00:7:1248	40	
11.9922	em tx	C		93	:::49154	6001:db80::200:ff:fe00:7:1247	40	
13.2591	em tx	C		95	:::49154	6001:db80::200:ff:fe00:7:1249	40	
14.6869	em tx	C		88	:::49154	6001:db80::200:ff:fe00:7:1242	40	
16.0083	em tx	C		93	:::49154	6001:db80::200:ff:fe00:7:1247	40	
17.8287	em tx	C		95	:::49154	6001:db80::200:ff:fe00:7:1249	40	
17.8861	em tx	C		94	:::49154	6001:db80::200:ff:fe00:7:1248	40	
20.0244	em tx	C		93	:::49154	6001:db80::200:ff:fe00:7:1247	40	
22.3982	em tx	C		95	:::49154	6001:db80::200:ff:fe00:7:1249	40	
24.0405	em tx	C		93	:::49154	6001:db80::200:ff:fe00:7:1247	40	
24.8091	em tx	C		94	:::49154	6001:db80::200:ff:fe00:7:1248	40	
25.8139	em tx	C		88	:::49154	6001:db80::200:ff:fe00:7:1242	40	
26.5029	em tx	C		100	:::49154	6001:db80::200:ff:fe00:7:1254	40	
26.9678	em tx	C		95	:::49154	6001:db80::200:ff:fe00:7:1249	40	
28.0566	em tx	C		93	:::49154	6001:db80::200:ff:fe00:7:1247	40	
31.5373	em tx	C		95	:::49154	6001:db80::200:ff:fe00:7:1249	40	
31.7321	em tx	C		94	:::49154	6001:db80::200:ff:fe00:7:1248	40	
32.0727	em tx	C		93	:::49154	6001:db80::200:ff:fe00:7:1247	40	
	
24.2943	em tx	C		91	:::49154	6001:db80::200:ff:fe00:7:1245	40	
25.675	em tx	C		89	:::49154	6001:db80::200:ff:fe00:7:1243	40	
25.6868	em tx	C		91	:::49154	6001:db80::200:ff:fe00:7:1245	40	
27.0793	em tx	C		91	:::49154	6001:db80::200:ff:fe00:7:1245	40	
27.4378	em tx	C		98	:::49154	6001:db80::200:ff:fe00:7:1252	40	
28.4717	em tx	C		91	:::49154	6001:db80::200:ff:fe00:7:1245	40	
29.8642	em tx	C		91	:::49154	6001:db80::200:ff:fe00:7:1245	40	
29.9209	em tx	C		100	:::49154	6001:db80::200:ff:fe00:7:1254	40	
31.1993	em tx	C		83	:::49154	6001:db80::200:ff:fe00:7:1237	40	
31.2566	em tx	C		91	:::49154	6001:db80::200:ff:fe00:7:1245	40	
31.7113	em tx	C		95	:::49154	6001:db80::200:ff:fe00:7:1249	40	
32.6491	em tx	C		91	:::49154	6001:db80::200:ff:fe00:7:1245	40	
32.7358	em tx	C		81	:::49154	6001:db80::200:ff:fe00:7:1235	40	
33.2648	em tx	C		87	:::49154	6001:db80::200:ff:fe00:7:1241	40	
34.0415	em tx	C		91	:::49154	6001:db80::200:ff:fe00:7:1245	40	
35.3251	em tx	C		99	:::49154	6001:db80::200:ff:fe00:7:1253	40	
