time(s)	selfUeId	peerUeId	role	status	Position	 Difference
1.68	81	9	0	1	30.0682:42.0242:1	19.9259:0.145982:1	-5.06818:-17.0242:6	-10.1423:-41.8782:0	
1.68	82	60	0	1	35.0496:42.0066:1	25.0732:30.0082:1	-10.0496:-17.0066:6	-9.97634:-11.9984:0	
1.68	83	59	0	1	40.1311:42.0356:1	20.0103:29.9063:1	-15.1311:-17.0356:6	-20.1208:-12.1293:0	
1.68	84	14	0	1	44.9664:41.9572:1	44.876:0.0798064:1	-19.9664:-16.9572:6	-0.0903868:-41.8774:0	
1.68	85	73	0	1	41.1975:1.36171:0.3	39.8614:36.0664:1	-16.1975:23.6383:6.7	-1.33606:34.7047:0.7	
1.68	86	72	0	1	41.3986:28.8575:0.3	34.8668:36.0119:1	-16.3986:-3.85747:6.7	-6.53183:7.15443:0.7	
1.68	88	77	0	1	14.3676:5.16461:0.3	9.86344:41.999:1	10.6324:19.8354:6.7	-4.50418:36.8344:0.7	
1.68	89	71	0	1	12.6929:38.6767:0.3	29.8985:36.0033:1	12.3071:-13.6767:6.7	17.2056:-2.67346:0.7	
1.68	90	70	0	1	9.93689:48.3193:0.3	24.9448:35.8413:1	15.0631:-23.3193:6.7	15.0079:-12.478:0.7	
1.68	91	18	0	1	22.5753:24.1915:0.3	15.0199:6.06647:1	2.42471:0.808535:6.7	-7.55541:-18.125:0.7	
1.68	92	76	0	1	31.5338:44.7527:0.3	4.93634:41.9071:1	-6.53384:-19.7527:6.7	-26.5975:-2.8456:0.7	
1.68	94	28	0	1	48.2824:32.2591:0.3	14.9394:12.1427:1	-23.2824:-7.25914:6.7	-33.3431:-20.1165:0.7	
1.68	95	13	0	1	34.6523:6.89992:0.3	40.153:0.0297422:1	-9.65233:18.1001:6.7	5.50071:-6.87017:0.7	
1.68	96	50	0	1	18.6894:44.176:0.3	24.9447:24.1042:1	6.31063:-19.176:6.7	6.25529:-20.0718:0.7	
1.68	97	40	0	1	22.4275:30.0364:0.3	25.0955:17.9977:1	2.57252:-5.03645:6.7	2.66799:-12.0388:0.7	
1.68	98	78	0	1	34.2568:11.268:0.3	15.021:42.0281:1	-9.25683:13.732:6.7	-19.2359:30.7601:0.7	
1.68	99	4	0	1	12.7575:5.34423:0.3	25:25:6	12.2425:19.6558:6.7	12.2425:19.6558:5.7	
1.68	100	63	0	1	48.1787:29.1701:0.3	40.0031:29.934:1	-23.1787:-4.17006:6.7	-8.17561:0.763987:0.7	
1.70893	13	95	1	1	40.1553:0.0315141:1	34.6071:6.82583:0.3	-15.1553:24.9685:6	-5.5482:6.79432:-0.7	
1.70893	14	84	1	1	44.8749:0.0824896:1	44.9648:41.9596:1	-19.8749:24.9175:6	0.089901:41.8772:0	
1.70893	40	97	1	1	25.0962:17.9949:1	22.3522:30.0797:0.3	-0.0962374:7.00513:6	-2.74401:12.0848:-0.7	
1.70893	50	96	1	1	24.9418:24.1044:1	18.6077:44.1467:0.3	0.0582272:0.895552:6	-6.3341:20.0423:-0.7	
1.70893	59	83	1	1	20.0131:29.9058:1	40.1325:42.0381:1	4.98687:-4.90578:6	20.1194:12.1323:0	
1.70893	60	82	1	1	25.0736:30.0054:1	35.048:42.0091:1	-0.0735743:-5.00537:6	9.97444:12.0037:0	
1.70893	70	90	1	1	24.9438:35.8386:1	10.0229:48.3079:0.3	0.0561909:-10.8386:6	-14.9209:12.4693:-0.7	
1.70893	72	86	1	1	34.865:36.0142:1	41.3142:28.8775:0.3	-9.86499:-11.0142:6	6.44918:-7.13667:-0.7	
1.70893	77	88	1	1	9.86136:42.001:1	14.3399:5.08236:0.3	15.1386:-17.001:6	4.47858:-36.9186:-0.7	
1.70993	4	99	1	1	25:25:6	12.8472:5.34106:0.3	0:0:1	-12.1528:-19.6589:-5.7	
1.70993	9	81	1	1	19.9253:0.148918:1	30.0671:42.027:1	5.07471:24.8511:6	10.1419:41.8781:0	
1.70993	18	91	1	1	15.0227:6.06544:1	22.5314:24.2698:0.3	9.9773:18.9346:6	7.50869:18.2043:-0.7	
1.70993	28	94	1	1	14.9396:12.1456:1	48.3493:32.3191:0.3	10.0604:12.8544:6	33.4097:20.1734:-0.7	
1.71093	63	100	1	1	40:29.9342:1	48.2702:29.1545:0.3	-15:-4.93425:6	8.27017:-0.779753:-0.7	
1.71093	73	85	1	1	39.8583:36.0662:1	41.1066:1.38055:0.3	-14.8583:-11.0662:6	1.2483:-34.6857:-0.7	
1.71093	76	92	1	1	4.93327:41.9075:1	31.6106:44.8048:0.3	20.0667:-16.9075:6	26.6774:2.89736:-0.7	
1.71193	71	89	1	1	29.8975:36.0063:1	12.6472:38.5925:0.3	-4.89745:-11.0063:6	-17.2502:2.58625:-0.7	
1.71193	78	98	1	1	15.0206:42.0249:1	34.2892:11.3582:0.3	9.97945:-17.0249:6	19.2686:-30.6667:-0.7	
1.74893	4	99	1	2	25:25:6	12.9641:5.33692:0.3	0:0:1	-12.0359:-19.6631:-5.7	
1.74893	14	84	1	2	44.8734:0.0861997:1	44.9626:41.963:1	-19.8734:24.9138:6	0.0892292:41.8768:0	
1.74893	28	94	1	2	14.9399:12.1495:1	48.4364:32.3971:0.3	10.0601:12.8505:6	33.4965:20.2476:-0.7	
1.74893	50	96	1	2	24.9378:24.1047:1	18.4947:44.1062:0.3	0.0622163:0.895257:6	-6.44307:20.0015:-0.7	
1.74893	59	83	1	2	20.0171:29.9051:1	40.1345:42.0415:1	4.98293:-4.90511:6	20.1174:12.1364:0	
1.74893	60	82	1	2	25.074:30.0014:1	35.0459:42.0124:1	-0.0740435:-5.0014:6	9.97182:12.011:0	
1.74893	63	100	1	2	39.9962:29.9345:1	48.3826:29.1354:0.3	-14.9962:-4.9345:6	8.38635:-0.799123:-0.7	
1.74893	70	90	1	2	24.9425:35.8348:1	10.1419:48.2921:0.3	0.0575011:-10.8348:6	-14.8006:12.4573:-0.7	
1.74893	71	89	1	2	29.8962:36.0098:1	12.5943:38.495:0.3	-4.89624:-11.0098:6	-17.302:2.4852:-0.7	
1.74893	72	86	1	2	34.8625:36.0173:1	41.1974:28.9052:0.3	-9.8625:-11.0173:6	6.3349:-7.11212:-0.7	
1.74893	73	85	1	2	39.8545:36.066:1	40.995:1.4037:0.3	-14.8545:-11.066:6	1.14046:-34.6623:-0.7	
1.74893	77	88	1	2	9.85848:42.0038:1	14.3017:4.96863:0.3	15.1415:-17.0038:6	4.44318:-37.0352:-0.7	
1.74893	78	98	1	2	15.0201:42.0213:1	34.3267:11.4627:0.3	9.97991:-17.0213:6	19.3066:-30.5586:-0.7	
1.74993	13	95	1	2	40.1586:0.0340253:1	34.5431:6.72083:0.3	-15.1586:24.966:6	-5.6155:6.6868:-0.7	
1.74993	18	91	1	2	15.0265:6.06407:1	22.4727:24.3745:0.3	9.97354:18.9359:6	7.44625:18.3104:-0.7	
1.74993	40	97	1	2	25.0973:17.9909:1	22.2456:30.1409:0.3	-0.0973228:7.00908:6	-2.85175:12.15:-0.7	
1.74993	76	92	1	2	4.92939:41.9079:1	31.7075:44.8705:0.3	20.0706:-16.9079:6	26.7781:2.96262:-0.7	
1.75193	9	81	1	2	19.9245:0.153039:1	30.0657:42.031:1	5.07553:24.847:6	10.1412:41.8779:0	
1.76893	84	14	0	2	44.9616:41.9647:1	44.8727:0.0880548:1	-19.9616:-16.9647:6	-0.0888933:-41.8766:0	
1.76893	85	73	0	2	40.9362:1.41588:0.3	39.8525:36.0659:1	-15.9362:23.5841:6.7	-1.08371:34.65:0.7	
1.76893	86	72	0	2	41.139:28.919:0.3	34.8613:36.0189:1	-16.139:-3.91903:6.7	-6.27776:7.09985:0.7	
1.76893	94	28	0	2	48.4811:32.4372:0.3	14.9401:12.1515:1	-23.4811:-7.43717:6.7	-33.541:-20.2856:0.7	
1.76893	95	13	0	2	34.5134:6.67217:0.3	40.1601:0.0351891:1	-9.51338:18.3278:6.7	5.64669:-6.63698:0.7	
1.76893	96	50	0	2	18.4382:44.086:0.3	24.9358:24.1049:1	6.56176:-19.086:6.7	6.49755:-19.9811:0.7	
1.76893	97	40	0	2	22.1962:30.1693:0.3	25.0978:17.9891:1	2.80385:-5.16934:6.7	2.90167:-12.1803:0.7	
1.76893	98	78	0	2	34.347:11.5191:0.3	15.0198:42.0193:1	-9.34696:13.4809:6.7	-19.3271:30.5001:0.7	
1.76893	99	4	0	2	13.0241:5.3348:0.3	25:25:6	11.9759:19.6652:6.7	11.9759:19.6652:5.7	
1.76993	81	9	0	2	30.0651:42.0326:1	19.9241:0.154804:1	-5.06505:-17.0326:6	-10.1409:-41.8778:0	
1.76993	82	60	0	2	35.0447:42.0142:1	25.0743:29.9993:1	-10.0447:-17.0142:6	-9.97044:-12.0149:0	
1.76993	90	70	0	2	10.2043:48.2839:0.3	24.9418:35.8328:1	14.7957:-23.2839:6.7	14.7375:-12.451:0.7	
1.76993	92	76	0	2	31.7571:44.9042:0.3	4.9274:41.9081:1	-6.75713:-19.9042:6.7	-26.8297:-2.99609:0.7	
1.77093	88	77	0	2	14.2806:4.90608:0.3	9.8569:42.0053:1	10.7194:20.0939:6.7	-4.42371:37.0992:0.7	
1.77093	91	18	0	2	22.4419:24.4294:0.3	15.0284:6.06335:1	2.55811:0.570592:6.7	-7.41347:-18.3661:0.7	
1.77193	83	59	0	2	40.1356:42.0435:1	20.0193:29.9047:1	-15.1356:-17.0435:6	-20.1163:-12.1388:0	
1.77193	100	63	0	2	48.4506:29.1238:0.3	39.9939:29.9347:1	-23.4506:-4.12381:6.7	-8.45667:0.810848:0.7	
1.77293	89	71	0	2	12.5599:38.4317:0.3	29.8955:36.012:1	12.4401:-13.4317:6.7	17.3355:-2.41965:0.7	
14.08	93	67	0	1	11.8645:31.8426:0.3	9.27081:35.6385:1	13.1355:-6.84263:6.7	-2.5937:3.79585:0.7	
14.1089	67	93	1	1	9.27282:35.6364:1	11.802:31.7824:0.3	15.7272:-10.6364:6	2.52918:-3.85398:-0.7	
14.1519	67	93	1	2	9.27581:35.6333:1	11.7091:31.6929:0.3	15.7242:-10.6333:6	2.43328:-3.94038:-0.7	
14.1689	93	67	0	2	11.6724:31.6576:0.3	9.277:35.6321:1	13.3276:-6.65755:6.7	-2.39537:3.97454:0.7	
25.8289	25.8169	92	76	0	4	18.2403:31.5072:0.3	5.05063:42.2047:1	6.75973:-6.50716:6.7	-13.1896:10.6976:0.7	
25.8369	76	92	1	4	5.04865:42.2044:1	18.1848:31.53:0.3	19.9513:-17.2044:6	13.1361:-10.6744:-0.7	
26	92	73	0	1	17.7324:31.7162:0.3	39.8661:36.4919:1	7.2676:-6.7162:6.7	22.1337:4.77568:0.7	
26.0169	73	92	1	1	39.8658:36.4935:1	17.7827:31.7229:0.3	-14.8658:-11.4935:6	-22.083:-4.77062:-0.7	
26.0579	73	92	1	2	39.8649:36.4975:1	17.9047:31.7392:0.3	-14.8649:-11.4975:6	-21.9602:-4.75836:-0.7	
26.0769	92	73	0	2	17.9612:31.7467:0.3	39.8645:36.4994:1	7.03884:-6.7467:6.7	21.9033:4.7526828.08828.0769	92	73	0	4	18.7662:29.8745:0.3	39.778:36.6543:1	6.23379:-4.87453:6.7	21.0118:6.77978:0.7	
28.0979	73	92	1	4	39.7799:36.6534:1	18.7242:29.9215:0.3	-14.7799:-11.6534:6	-21.0556:-6.73193:-0.7	
28.56	92	64	0	1	17.801:30.9555:0.3	45.2302:29.7017:1	7.19904:-5.95551:6.7	27.4293:-1.25382:0.7	
28.5779	64	92	1	1	45.2291:29.7031:1	17.7651:30.9956:0.3	-20.2291:-4.70309:6	-27.464:1.29253:-0.7	
28.6179	64	92	1	2	45.2267:29.7062:1	17.6852:31.0851:0.3	-20.2267:-4.70624:6	-27.5414:1.3789:-0.7	
28.6379	92	64	0	2	17.6453:31.1299:0.3	45.2254:29.7078:1	7.35475:-6.12989:6.7	27.5802:-1.430.6489	9230.6369	92	64	0	4	16.6167:34.6342:0.3	45.3583:29.7881:1	8.38327:-9.63422:6.7	28.7416:-4.84614:0.7	
30.6579	64	92	1	4	45.3603:29.7887:1	16.6768:34.6533:0.3	-20.3603:-4.78875:6	-28.6836:4.86453:-0.7	
31.12	92	54	0	1	17.4386:35.2514:0.3	45.6222:24.302:1	7.5614:-10.2514:6.7	28.1836:-10.9494:0.7	
31.1389	54	92	1	1	45.6233:24.3004:1	17.4045:35.2967:0.3	-20.6233:0.699569:6	-28.2188:10.9963:-0.7	
31.1969	54	92	1	2	45.6266:24.2957:1	17.2999:35.4358:0.3	-20.6266:0.704339:6	-28.3267:11.1402:-0.7	
31.2189	92	54	0	2	17.2602:35.4886:0.3	45.6279:24.2939:1	7.73975:-10.4886:6.7	28.3676:-11.1947:0.7	
32.68	87	68	0	1	40.3014:42.4558:0.3	15.8861:35.8704:1	-15.3014:-17.4558:6.7	-24.4153:-6.5854:0.7	
32.6969	68	87	1	1	15.8876:35.8711:1	40.3438:42.4836:0.3	9.11238:-10.8711:6	24.4562:6.61257:-0.7	
32.7399	68	87	1	2	15.8915:35.8729:1	40.4517:42.5545:0.3	9.10847:-10.8729:6	24.5601:6.6816:-0.7	
32.7569	87	68	0	2	40.4943:42.5825:0.3	15.8931:35.8736:1	-15.4943:-17.5825:6.7	-24.6012:-6.70889:0.7	
33.2169	92	54	0	4	14.9571:33.8436:0.3	45.7586:24.1877:1	10.0429:-8.84365:6.7	30.8015:-9.65594:0.7	
33.2379	54	92	1	4	45.7594:24.1897:1	14.9559:33.7807:0.3	-20.7594:0.810335:6	-30.8035:9.59099:-0.7	
33.68	92	65	0	1	14.9312:32.4547:0.3	0.426982:35.7941:1	10.0688:-7.45467:6.7	-14.5042:3.33939:0.7	
33.6969	65	92	1	1	0.428601:35.7946:1	14.9303:32.4039:0.3	24.5714:-10.7946:6	14.5017:-3.39066:-0.7	
33.7369	65	92	1	2	0.432425:35.7957:1	14.928:32.2839:0.3	24.5676:-10.7957:6	14.4956:-3.51181:-0.7	
33.7569	92	65	0	2	14.9269:32.2239:0.3	0.434337:35.7963:1	10.0731:-7.22393:6.7	-14.4926:3.57239:0.7	
