time(sec)	tx/rx	C/S	IMSI	IP[src]	IP[dst]	PktSize(bytes)
time(sec)	tx/rx	C/S	IMSI	IP[src]	IP[dst]	PktSize(bytes)
3	tx	C		81	:::49153	6001:db80::200:ff:fe00:7:50002	250	
3.06	tx	C		82	:::49153	6001:db80::200:ff:fe00:7:50003	250	
3.5	tx	C		81	:::49153	6001:db80::200:ff:fe00:7:50002	250	
3.56	tx	C		82	:::49153	6001:db80::200:ff:fe00:7:50003	250	
4	tx	C		81	:::49153	6001:db80::200:ff:fe00:7:50002	250	
4.06	tx	C		82	:::49153	6001:db80::200:ff:fe00:7:50003	250	
4.5	tx	C		81	:::49153	6001:db80::200:ff:fe00:7:50002	250	
4.56	tx	C		82	:::49153	6001:db80::200:ff:fe00:7:50003	250	
