time(s)	selfUeId	peerUeId	role	status	Position	 Difference
1.68	81	80	0	1	30.0682:42.0242:1	24.9764:42.0993:1	-5.06818:-17.0242:6	-5.09177:0.0750971:0	
1.68	82	39	0	1	35.0496:42.0066:1	19.9845:18.0426:1	-10.0496:-17.0066:6	-15.065:-23.964:0	
1.68	83	49	0	1	40.1311:42.0356:1	20.0565:24.038:1	-15.1311:-17.0356:6	-20.0745:-17.9976:0	
1.69793	39	82	1	1	19.9834:18.0412:1	35.0486:42.0081:1	5.01655:6.95882:6	15.0652:23.967:0	
1.69793	80	81	1	1	24.9779:42.1003:1	30.0676:42.0259:1	0.0221147:-17.1003:6	5.08968:-0.0744361:0	
1.70093	49	83	1	1	20.0552:24.0396:1	40.1321:42.0374:1	4.94476:0.960399:6	20.0769:17.9978:0	
1.72293	80	81	1	2	24.9799:42.1018:1	30.0667:42.0282:1	0.0200585:-17.1018:6	5.08675:-0.0735145:0	
1.72493	39	82	1	2	19.9818:18.039:1	35.0472:42.0104:1	5.01819:6.96096:6	15.0653:23.9714:0	
1.73293	81	80	0	2	30.0663:42.0292:1	24.9808:42.1023:1	-5.06634:-17.0292:6	-5.08558:0.0731458:0	
1.73393	49	83	1	2	20.0532:24.0422:1	40.1338:42.0402:1	4.94681:0.957814:6	20.0806:17.998:0	
1.74593	83	49	0	2	40.1344:42.0413:1	20.0524:24.0431:1	-15.1344:-17.0413:6	-20.0819:-17.9981:0	
1.74793	82	39	0	2	35.0459:42.0123:1	19.9804:18.0372:1	-10.0459:-17.0123:6	-15.0655:-23.9751:0	
