time(sec)	tx/rx	C/S	IMSI	IP[src]	IP[dst]	PktSize(bytes)
time(sec)	tx/rx	C/S	IMSI	IP[src]	IP[dst]	PktSize(bytes)
3.06493	rx	C		81	6001:db80::200:ff:fe00:7:50002	:::49153	250	
3.12593	rx	C		82	6001:db80::200:ff:fe00:7:50003	:::49153	250	
3.18593	rx	C		83	6001:db80::200:ff:fe00:7:50004	:::49153	250	
3.25793	rx	C		84	6001:db80::200:ff:fe00:7:50005	:::49153	250	
3.55893	rx	C		81	6001:db80::200:ff:fe00:7:50002	:::49153	250	
3.61893	rx	C		82	6001:db80::200:ff:fe00:7:50003	:::49153	250	
3.67793	rx	C		83	6001:db80::200:ff:fe00:7:50004	:::49153	250	
3.73693	rx	C		84	6001:db80::200:ff:fe00:7:50005	:::49153	250	
4.06293	rx	C		81	6001:db80::200:ff:fe00:7:50002	:::49153	250	
4.12093	rx	C		82	6001:db80::200:ff:fe00:7:50003	:::49153	250	
4.18193	rx	C		83	6001:db80::200:ff:fe00:7:50004	:::49153	250	
4.24093	rx	C		84	6001:db80::200:ff:fe00:7:50005	:::49153	250	
4.56593	rx	C		81	6001:db80::200:ff:fe00:7:50002	:::49153	250	
4.62593	rx	C		82	6001:db80::200:ff:fe00:7:50003	:::49153	250	
4.68593	rx	C		83	6001:db80::200:ff:fe00:7:50004	:::49153	250	
4.74593	rx	C		84	6001:db80::200:ff:fe00:7:50005	:::49153	250	
