time(s)	selfUeId	peerUeId	role	status	Position	 Difference
1.68	81	31	0	1	30.0682:42.0242:1	30.0982:11.9757:1	-5.06818:-17.0242:6	0.0299863:-30.0485:0	
1.68	82	77	0	1	35.0496:42.0066:1	9.86344:41.999:1	-10.0496:-17.0066:6	-25.1861:-0.00762765:0	
1.68	83	74	0	1	40.1311:42.0356:1	44.9731:36.0191:1	-15.1311:-17.0356:6	4.84203:-6.0165:0	
1.68	84	13	0	1	44.9664:41.9572:1	40.153:0.0297422:1	-19.9664:-16.9572:6	-4.81334:-41.9275:0	
1.68	86	23	0	1	30.7729:47.3184:0.3	39.9746:6.04511:1	-5.77291:-22.3184:6.7	9.2017:-41.2733:0.7	
1.68	87	25	0	1	16.1583:42.3861:0.3	0.0904553:11.8999:1	8.84169:-17.3861:6.7	-16.0679:-30.4863:0.7	
1.68	89	17	0	1	23.876:10.3013:0.3	10.126:6.06002:1	1.12396:14.6987:6.7	-13.75:-4.24128:0.7	
1.68	90	63	0	1	7.97542:11.2564:0.3	40.0031:29.934:1	17.0246:13.7436:6.7	32.0277:18.6777:0.7	
1.68	92	78	0	1	32.6423:35.0033:0.3	15.021:42.0281:1	-7.64235:-10.0033:6.7	-17.6214:7.02477:0.7	
1.68	93	6	0	1	28.4699:5.28507:0.3	4.97352:0.0309311:1	-3.46987:19.7149:6.7	-23.4964:-5.25414:0.7	
1.68	94	57	0	1	9.07536:37.4069:0.3	9.98686:29.9595:1	15.9246:-12.4069:6.7	0.9115:-7.4474:0.7	
1.68	95	71	0	1	28.868:21.1091:0.3	29.8985:36.0033:1	-3.86799:3.89094:6.7	1.03051:14.8942:0.7	
1.68	97	60	0	1	25.8802:0.0266682:0.3	25.0732:30.0082:1	-0.880223:24.9733:6.7	-0.806988:29.9816:0.7	
1.68	99	72	0	1	1.3493:44.4344:0.3	34.8668:36.0119:1	23.6507:-19.4344:6.7	33.5175:-8.42247:0.7	
1.68	100	52	0	1	21.7631:34.126:0.3	35.1543:24.0106:1	3.23685:-9.12595:6.7	13.3912:-10.1154:0.7	
1.75293	6	93	1	1	4.97259:0.0236967:1	28.4854:5.50331:0.3	20.0274:24.9763:6	23.5128:5.47961:-0.7	
1.75293	17	89	1	1	10.133:6.05795:1	24.0819:10.3755:0.3	14.867:18.9421:6	13.9488:4.31754:-0.7	
1.75293	31	81	1	1	30.099:11.9685:1	30.0656:42.0311:1	-5.09903:13.0315:6	-0.0333833:30.0626:0	
1.75293	52	100	1	1	35.1605:24.0144:1	21.8232:34.3363:0.3	-10.1605:0.985579:6	-13.3373:10.3219:-0.7	
1.75293	60	97	1	1	25.0741:30.001:1	26.0967:0.0586372:0.3	-0.0740905:-5.001:6	1.02257:-29.9424:-0.7	
1.75293	63	90	1	1	39.9958:29.9345:1	7.91725:11.4673:0.3	-14.9958:-4.93453:6	-32.0786:-18.4672:-0.7	
1.75293	71	95	1	1	29.8961:36.0101:1	28.873:20.8903:0.3	-4.89611:-11.0101:6	-1.0231:-15.1198:-0.7	
1.75293	74	83	1	1	44.98:36.0168:1	40.1347:42.0419:1	-19.98:-11.0168:6	-4.84532:6.02512:0	
1.75393	25	87	1	1	0.0978423:11.8996:1	15.937:42.3709:0.3	24.9022:13.1004:6	15.8392:30.4713:-0.7	
1.75393	77	82	1	1	9.85812:42.0041:1	35.0456:42.0129:1	15.1419:-17.0041:6	25.1875:0.0087232:0	
1.75393	78	92	1	1	15.02:42.0208:1	32.663:35.2242:0.3	9.97997:-17.0208:6	17.643:-6.79662:-0.7	
1.75493	13	84	1	1	40.159:0.0343316:1	44.9623:41.9635:1	-15.159:24.9657:6	4.80336:41.9292:0	
1.75593	23	86	1	1	39.9699:6.03913:1	30.6518:47.1255:0.3	-14.9699:18.9609:6	-9.31816:41.0864:-0.7	
1.75593	57	94	1	1	9.994:29.9621:1	8.89317:37.5436:0.3	15.006:-4.96206:6	-1.10083:7.58153:-0.7	
1.75593	72	99	1	1	34.8621:36.0179:1	1.57377:44.3956:0.3	-9.86207:-11.0179:6	-33.2883:8.37778:-0.7	
1.82493	6	93	1	2	4.97168:0.0165544:1	28.5007:5.71876:0.3	20.0283:24.9834:6	23.529:5.70221:-0.7	
1.82493	52	100	1	2	35.1666:24.0182:1	21.8826:34.544:0.3	-10.1666:0.981759:6	-13.2841:10.5258:-0.7	
1.82493	57	94	1	2	10.0005:29.9644:1	8.72761:37.6678:0.3	14.9995:-4.96441:6	-1.27288:7.70342:-0.7	
1.82493	74	83	1	2	44.9869:36.0145:1	40.1383:42.0481:1	-19.9869:-11.0145:6	-4.84857:6.03364:0	
1.82493	77	82	1	2	9.85301:42.0091:1	35.0418:42.0188:1	15.147:-17.0091:6	25.1888:0.00977535:0	
1.82593	60	97	1	2	25.0749:29.9938:1	26.3133:0.0906375:0.3	-0.0749469:-4.99375:6	1.23836:-29.9031:-0.7	
1.82593	63	90	1	2	39.9885:29.935:1	7.85903:11.6784:0.3	-14.9885:-4.93501:6	-32.1295:-18.2566:-0.7	
1.82593	78	92	1	2	15.0191:42.0136:1	32.6831:35.4392:0.3	9.98087:-17.0136:6	17.664:-6.57441:-0.7	
1.82693	13	84	1	2	40.1647:0.0387416:1	44.9584:41.9696:1	-15.1647:24.9613:6	4.79377:41.9308:0	
1.82693	23	86	1	2	39.9655:6.03355:1	30.5385:46.9452:0.3	-14.9655:18.9665:6	-9.42706:40.9116:-0.7	
1.82693	25	87	1	2	0.105137:11.8993:1	15.7186:42.3558:0.3	24.8949:13.1007:6	15.6134:30.4565:-0.7	
1.82693	71	95	1	2	29.8937:36.0171:1	28.8781:20.6684:0.3	-4.89369:-11.0171:6	-1.01557:-15.3487:-0.7	
1.82693	72	99	1	2	34.8577:36.0234:1	1.78367:44.3594:0.3	-9.85766:-11.0234:6	-33.074:8.336:-0.7	
1.82793	17	89	1	2	10.1402:6.05582:1	24.2935:10.4518:0.3	14.8598:18.9442:6	14.1533:4.39596:-0.7	
1.82893	31	81	1	2	30.0999:11.9609:1	30.063:42.0382:1	-5.09992:13.0391:6	-0.0369234:30.0773:0	
1.86493	83	74	0	2	40.1403:42.0516:1	44.9907:36.0132:1	-15.1403:-17.0516:6	4.85037:-6.03837:0	
1.86493	92	78	0	2	32.694:35.5557:0.3	15.0186:42.0098:1	-7.69402:-10.5557:6.7	-17.6754:6.45405:0.7	
1.86493	93	6	0	2	28.5093:5.83846:0.3	4.97118:0.0125865:1	-3.50925:19.1615:6.7	-23.5381:-5.82587:0.7	
1.86493	97	60	0	2	26.4291:0.107734:0.3	25.0754:29.9899:1	-1.42905:24.8923:6.7	-1.35365:29.8821:0.7	
1.86493	99	72	0	2	1.89601:44.34:0.3	34.8553:36.0264:1	23.104:-19.34:6.7	32.9593:-8.31363:0.7	
1.86593	84	13	0	2	44.9563:41.9728:1	40.1677:0.0411304:1	-19.9563:-16.9728:6	-4.78857:-41.9317:0	
1.86593	94	57	0	2	8.62923:37.7417:0.3	10.0043:29.9658:1	16.3708:-12.7417:6.7	1.37511:-7.77585:0.7	
1.86593	95	71	0	2	28.8808:20.5514:0.3	29.8924:36.0208:1	-3.8808:4.44858:6.7	1.01161:15.4694:0.7	
1.86693	86	23	0	2	30.4747:46.8435:0.3	39.9631:6.0304:1	-5.47466:-21.8435:6.7	9.48841:-40.8131:0.7	
1.86693	89	17	0	2	24.4036:10.4914:0.3	10.144:6.05471:1	0.596392:14.5086:6.7	-14.2597:-4.43674:0.7	
1.86793	81	31	0	2	30.0616:42.0418:1	30.1004:11.957:1	-5.06164:-17.0418:6	0.03874:-30.0848:0	
1.86793	87	25	0	2	15.5959:42.3473:0.3	0.109233:11.8991:1	9.40414:-17.3473:6.7	-15.4866:-30.4482:0.7	
1.86893	82	77	0	2	35.0394:42.0225:1	9.84984:42.0121:1	-10.0394:-17.0225:6	-25.1896:-0.0104274:0	
1.87093	90	63	0	2	7.82314:11.8085:0.3	39.9841:29.9353:1	17.1769:13.1915:6.7	32.1609:18.1268:0.7	
1.87093	100	52	0	2	21.9205:34.6767:0.3	35.1705:24.0207:1	3.07954:-9.67671:6.7	13.2501:-10.656:0.7	
2.48	85	26	0	1	1.81855:20.0908:0.3	4.93777:12.0353:1	23.1815:4.90915:6.7	3.11923:-8.0555:0.7	
2.55493	26	85	1	1	4.94243:12.0295:1	1.5981:20.1348:0.3	20.0576:12.9705:6	-3.34433:8.10534:-0.7	
2.62993	26	85	1	2	4.9471:12.0236:1	1.37745:20.1788:0.3	20.0529:12.9764:6	-3.56965:8.15522:-0.7	
2.66593	85	26	0	2	1.27154:20.1999:0.3	4.94933:12.0208:1	23.7285:4.80006:6.7	3.6778:-8.17916:0.7	
2.88	88	67	0	1	15.7209:8.61624:0.3	9.89778:35.9955:1	9.27907:16.3838:6.7	-5.82316:27.3793:0.7	
2.95693	67	88	1	1	9.89031:35.9937:1	15.9368:8.53464:0.3	15.1097:-10.9937:6	6.0465:-27.459:-0.7	
3.06493	67	88	1	2	9.87969:35.9917:1	15.9962:8.6738:0.3	15.1203:-10.9917:6	6.11655:-27.3179:-0.7	
3.10593	88	67	0	2	15.9574:8.79052:0.3	9.87563:35.9912:1	9.04256:16.2095:6.7	-6.08181:27.2007:0.7	
7.48	96	54	0	1	32.4216:35.0329:0.3	44.9705:23.9827:1	-7.42157:-10.0329:6.7	12.5489:-11.0502:0.7	
7.55293	54	96	1	1	44.9739:23.9763:1	32.2453:35.1625:0.3	-19.9739:1.02373:6	-12.7286:11.1862:-0.7	
7.62993	54	96	1	2	44.9775:23.9695:1	32.0591:35.2993:0.3	-19.9775:1.03055:6	-12.9183:11.3298:-0.7	
7.66493	96	54	0	2	31.9745:35.3615:0.3	44.9791:23.9664:1	-6.97454:-10.3615:6.7	13.0046:-11.3951:0.7	
24.48	98	53	0	1	34.0369:23.7082:0.3	39.5239:24.4437:1	-9.03693:1.2918:6.7	5.48697:0.735542:0.7	
24.5539	53	98	1	1	39.5171:24.4467:1	33.8393:23.8088:0.3	-14.5171:0.553334:6	-5.67783:-0.637845:-0.7	
24.6299	53	98	1	2	39.5101:24.4497:1	33.6361:23.9123:0.3	-14.5101:0.55033:6	-5.87403:-0.53741:-0.7	
24.6669	98	53	0	2	33.5372:23.9626:0.3	39.5067:24.4511:1	-8.53717:1.03738:6.7	5.96955:0.488515:0.7	
65.68	91	27	0	1	4.74769:3.1016:0.3	9.64337:12.5927:1	20.2523:21.8984:6.7	4.89568:9.49109:0.7	
65.7539	27	91	1	1	9.64549:12.5856:1	4.96513:3.05791:0.3	15.3545:12.4144:6	-4.68035:-9.52769:-0.7	
65.8299	27	91	1	2	9.64766:12.5783:1	5.18867:3.013:0.3	15.3523:12.4217:6	-4.45899:-9.56532:-0.7	
65.8669	91	27	0	2	5.29749:2.99113:0.3	9.64872:12.5748:1	19.7025:22.0089:6.7	4.35123:9.58364:0.7	
